<?xml version="1.0" encoding="UTF-8"?>
<svg width="33px" height="21px" viewBox="0 0 33 21" version="1.1" xmlns="http://www.w3.org/2000/svg" xmlns:xlink="http://www.w3.org/1999/xlink">
    <!-- Generator: Sketch 53.1 (72631) - https://sketchapp.com -->
    <title>hotel</title>
    <desc>Created with Sketch.</desc>
    <g id="design" stroke="none" stroke-width="1" fill="none" fill-rule="evenodd">
        <g id="landing" transform="translate(-1259.000000, -3465.000000)" fill="#FFFFFF">
            <g id="hotel" transform="translate(1259.000000, 3465.000000)">
                <path d="M3.78056248,5.86668356 C3.78056248,4.27043288 5.17914984,2.97172171 6.89831074,2.97172171 L13.8969087,2.97172171 C14.983653,2.97172171 15.9418269,3.49105418 16.5000341,4.27606954 C17.0583095,3.49099085 18.0164152,2.97172171 19.1031595,2.97172171 L26.1018257,2.97172171 C27.8209184,2.97172171 29.2195057,4.27043288 29.2195057,5.86668356 L29.2195057,6 L30,6 L30,3.17698471 C30,1.42518762 28.4651348,0 26.5785254,0 L6.42147464,0 C4.53486522,0 3,1.42518762 3,3.17698471 L3,6 L3.78049427,6 L3.78049427,5.86668356 L3.78056248,5.86668356 Z" id="Path"></path>
                <path d="M31.6871723,8 L1.31275936,8 C0.588900117,8 0,8.58701416 0,9.30855523 L0,16.9050007 C0,17.6265418 0.588900117,18.2135559 1.31275936,18.2135559 L1.85922423,18.2135559 L1.21353878,20.0300439 C1.07898965,20.4084903 1.27777249,20.8239911 1.65736638,20.9580412 C1.73793185,20.9864451 1.82013733,21 1.90097614,21 C2.20116623,21 2.48242788,20.8137739 2.5884135,20.5155669 L3.40670996,18.2134878 L29.59329,18.2134878 L30.4115865,20.5155669 C30.5175721,20.8137739 30.7987654,21 31.0990239,21 C31.1798627,21 31.2620682,20.9864451 31.3426336,20.9580412 C31.7222958,20.823923 31.9210103,20.4084221 31.7864612,20.0300439 L31.1407758,18.2135559 L31.6872406,18.2135559 C32.4110999,18.2135559 33,17.6265418 33,16.9050007 L33,9.30855523 C33,8.58701416 32.4110999,8 31.6871723,8 Z" id="Path"></path>
                <path d="M19.6099276,5 C18.722234,5 18,5.82582741 18,6.84094 L18,7 L28,7 L28,6.84094 C28,5.82582741 27.2778321,5 26.3901385,5 L19.6099276,5 Z" id="Path"></path>
                <path d="M6.60992758,5 C5.72216789,5 5,5.82590298 5,6.84101557 L5,7 L15,7 L15,6.84094 C15,5.82582741 14.2778321,5 13.3900724,5 L6.60992758,5 L6.60992758,5 Z" id="Path"></path>
            </g>
        </g>
    </g>
</svg>