<?xml version="1.0" encoding="UTF-8"?>
<svg width="36px" height="36px" viewBox="0 0 36 36" version="1.1" xmlns="http://www.w3.org/2000/svg" xmlns:xlink="http://www.w3.org/1999/xlink">
    <!-- Generator: Sketch 53.1 (72631) - https://sketchapp.com -->
    <title>Group 14</title>
    <desc>Created with Sketch.</desc>
    <g id="design" stroke="none" stroke-width="1" fill="none" fill-rule="evenodd">
        <g id="landing" transform="translate(-799.000000, -1135.000000)">
            <g id="Group-14" transform="translate(799.000000, 1135.000000)">
                <g id="Toggle-Button" fill="#FB8966">
                    <rect id="Rectangle-27" x="0" y="0" width="36" height="36" rx="8"></rect>
                </g>
                <g id="Group-19" transform="translate(8.000000, 7.000000)" fill="#FFFFFF">
                    <path d="M18.8625044,9.4067157 C18.5546942,9.17975101 18.1668745,8.89624896 18.1199204,8.7110249 C18.1396477,8.35247938 18.2420337,8.00339072 18.419049,7.69098817 C18.6903394,7.06834347 18.9703113,6.42311643 18.6590366,5.88656179 C18.3477619,5.35000714 17.6399452,5.26306108 16.9591108,5.19087098 C16.6062214,5.18850676 16.2585492,5.10551464 15.942628,4.94825355 C15.7851361,4.63120409 15.7024366,4.28223772 15.7008877,3.92821682 C15.6243835,3.24732274 15.54523,2.54294955 15.0052579,2.22814202 C14.4652858,1.91333449 13.8192186,2.18901018 13.1966692,2.46378909 C12.8839679,2.6407384 12.5346246,2.74309263 12.1758659,2.76294388 C11.9880495,2.71252087 11.705469,2.32813203 11.4802361,2.02029486 C11.0854874,1.48810179 10.6411354,0.884615385 9.99942938,0.884615385 C9.35772338,0.884615385 8.91341208,1.48810179 8.52123124,2.02029486 C8.2934305,2.32898804 8.01080922,2.71598567 7.8256014,2.76379989 C7.46716881,2.74219585 7.11819227,2.63996391 6.80479812,2.4646451 C6.17874349,2.18896941 5.53357299,1.9141905 4.998818,2.22378045 C4.464063,2.5333704 4.37451599,3.24296117 4.29797103,3.92817606 C4.29548474,4.28097409 4.21282597,4.6285953 4.05623079,4.94474798 C3.74092099,5.09976715 3.39459376,5.1812103 3.0432532,5.18300385 C2.36156285,5.25951475 1.6563547,5.33867521 1.34247145,5.87869466 C1.0285882,6.4187141 1.30428049,7.06402266 1.57903532,7.68752337 C1.75662126,8.00094498 1.85900728,8.35129727 1.8781639,8.7110249 C1.82774531,8.89885775 1.44339015,9.1823598 1.13557996,9.4067157 C0.603433518,9.79803414 0,10.2432812 0,10.8850434 C0,11.5268056 0.603433518,11.9720526 1.13647665,12.3633711 C1.44428684,12.5903358 1.83210649,12.8738378 1.87906059,13.0590619 C1.85933335,13.4176074 1.75694733,13.7666961 1.57993201,14.0790986 C1.30864167,14.7017433 1.02866972,15.3469703 1.33994441,15.883525 C1.65121909,16.4200796 2.35903581,16.5070257 3.03987022,16.5792158 C3.39275961,16.58158 3.74043188,16.6645721 4.05635307,16.8218332 C4.21384494,17.1388827 4.29654447,17.4878491 4.2980933,17.84187 C4.37459751,18.522764 4.45375103,19.2271372 4.99372315,19.5419448 C5.53369527,19.8567523 6.17454534,19.5732502 6.79799141,19.3019361 C7.11383108,19.1269434 7.46521239,19.0258528 7.82576443,19.0062869 C8.01358082,19.0567099 8.29616134,19.4410987 8.52139428,19.7489359 C8.91353436,20.281129 9.35788641,20.8846154 9.99959241,20.8846154 C10.6412984,20.8846154 11.0856097,20.281129 11.4777905,19.7489359 C11.7055913,19.4402427 11.9882126,19.0532451 12.1734204,19.0054309 C12.5320975,19.0257305 12.8813186,19.128044 13.1942237,19.3045857 C13.8168138,19.5758998 14.4619843,19.8541843 14.9975952,19.5454503 C15.5332062,19.2367571 15.6218972,18.5262696 15.6984422,17.8445195 C15.7009285,17.4917215 15.7835873,17.1441003 15.9401824,16.8279476 C16.2560629,16.6716648 16.6033683,16.5892841 16.9557686,16.5870829 C17.6374589,16.510572 18.3426671,16.4314116 18.6565503,15.8913921 C18.9704336,15.3513727 18.6869971,14.7104665 18.4165627,14.0869657 C18.2395474,13.7719544 18.1383434,13.4200124 18.1209394,13.0591026 C18.171358,12.8712698 18.5557132,12.5877677 18.8635234,12.3634118 C19.3956698,11.9712374 20,11.5259904 20,10.8850842 C20,10.2441779 19.3955068,9.79803414 18.8625044,9.4067157 Z" id="Path"></path>
                </g>
            </g>
        </g>
    </g>
</svg>
