<?xml version="1.0" encoding="UTF-8"?>
<svg width="36px" height="36px" viewBox="0 0 36 36" version="1.1" xmlns="http://www.w3.org/2000/svg" xmlns:xlink="http://www.w3.org/1999/xlink">
    <!-- Generator: Sketch 53.1 (72631) - https://sketchapp.com -->
    <title>Group 42</title>
    <desc>Created with Sketch.</desc>
    <g id="design" stroke="none" stroke-width="1" fill="none" fill-rule="evenodd">
        <g id="landing" transform="translate(-1189.000000, -1270.000000)">
            <g id="Group-42" transform="translate(1189.000000, 1270.000000)">
                <g id="Toggle-Button-Copy-4" fill="#FB8966">
                    <rect id="Rectangle-27" x="0" y="0" width="36" height="36" rx="8"></rect>
                </g>
                <rect id="Rectangle" fill="#FFFFFF" opacity="0.5" x="9" y="12" width="13" height="3" rx="1.5"></rect>
                <rect id="Rectangle-Copy-23" fill="#FFFFFF" opacity="0.5" x="9" y="22" width="13" height="3" rx="1.5"></rect>
                <rect id="Rectangle-Copy-22" fill="#FFFFFF" opacity="0.5" x="6" y="17" width="13" height="3" rx="1.5"></rect>
                <circle id="Oval" fill="#FFFFFF" cx="19.5" cy="18.5" r="8.5"></circle>
                <path d="M20.9146471,19 C20.7087289,19.5825962 20.1531094,20 19.5,20 C18.6715729,20 18,19.3284271 18,18.5 C18,18.0557501 18.1931253,17.656607 18.5,17.3819467 L18.5,15 C18.5,14.4477153 18.9477153,14 19.5,14 C20.0522847,14 20.5,14.4477153 20.5,15 L20.5,17.3819467 C20.6857704,17.5482158 20.8298558,17.7601032 20.9146471,18 L25,18 C25.2761424,18 25.5,18.2238576 25.5,18.5 C25.5,18.7761424 25.2761424,19 25,19 L20.9146471,19 L20.9146471,19 Z" id="Path" fill="#FB8966"></path>
                <path d="M22,11 C22,9.8954305 20.8807119,9 19.5,9 C18.1192881,9 17,9.8954305 17,11" id="Path" fill="#FFFFFF"></path>
            </g>
        </g>
    </g>
</svg>