<?xml version="1.0" encoding="UTF-8"?>
<svg width="36px" height="36px" viewBox="0 0 36 36" version="1.1" xmlns="http://www.w3.org/2000/svg" xmlns:xlink="http://www.w3.org/1999/xlink">
    <!-- Generator: Sketch 53.1 (72631) - https://sketchapp.com -->
    <title>Group 40</title>
    <desc>Created with Sketch.</desc>
    <g id="design" stroke="none" stroke-width="1" fill="none" fill-rule="evenodd">
        <g id="landing" transform="translate(-1189.000000, -1405.000000)">
            <g id="Group-40" transform="translate(1189.000000, 1405.000000)">
                <g id="Toggle-Button-Copy-6" fill="#FB8966">
                    <rect id="Rectangle-27" x="0" y="0" width="36" height="36" rx="8"></rect>
                </g>
                <path d="M23.4772764,21.3559561 L27.3743687,25.2530483 C27.9601551,25.8388348 27.9601551,26.7885822 27.3743687,27.3743687 C26.7885822,27.9601551 25.8388348,27.9601551 25.2530483,27.3743687 L21.3559561,23.4772764 C19.9793829,24.4371199 18.3054253,25 16.5,25 C11.8055796,25 8,21.1944204 8,16.5 C8,11.8055796 11.8055796,8 16.5,8 C21.1944204,8 25,11.8055796 25,16.5 C25,18.3054253 24.4371199,19.9793829 23.4772764,21.3559561 Z" id="Path" fill="#FFFFFF"></path>
                <polygon id="Triangle" fill="#FB8966" points="16.5 12 20 15 13 15"></polygon>
                <polygon id="Triangle-Copy" fill="#FB8966" transform="translate(16.500000, 19.500000) scale(1, -1) translate(-16.500000, -19.500000) " points="16.5 18 20 21 13 21"></polygon>
            </g>
        </g>
    </g>
</svg>