<?xml version="1.0" encoding="UTF-8"?>
<svg width="277px" height="297px" viewBox="0 0 277 297" version="1.1" xmlns="http://www.w3.org/2000/svg" xmlns:xlink="http://www.w3.org/1999/xlink">
    <!-- Generator: Sketch 53.2 (72643) - https://sketchapp.com -->
    <title>8@2x</title>
    <desc>Created with Sketch.</desc>
    <defs>
        <polygon id="path-1" points="0.560313352 0.0510019945 17.6981319 0.0510019945 17.6981319 7.0269414 0.560313352 7.0269414"></polygon>
    </defs>
    <g id="Page-1" stroke="none" stroke-width="1" fill="none" fill-rule="evenodd">
        <g id="8" transform="translate(-5.000000, -3.000000)">
            <g transform="translate(-14.000000, 2.886102)">
                <path d="M48.722264,159.189469 C48.722264,159.189469 -10.7322838,192.900201 35.7759511,201.555583 C82.2841855,210.210389 36.524964,277.438148 98.1942696,262.744909 C171.981615,245.16473 149.754043,193.320216 229.54114,250.086339 C277.736536,284.375553 297.490345,101.181406 231.207655,152.598732 C164.925546,204.015483 161.828467,142.792638 193.219323,91.403765 C220.583851,46.6056416 78.8290504,76.5527031 60.2480344,97.7524871 C41.6670189,118.952847 86.9544331,135.526131 48.722264,159.189469" id="Fill-3" fill-opacity="0.2" fill="#546EC0" transform="translate(145.836867, 166.484363) rotate(-12.000000) translate(-145.836867, -166.484363) "></path>
                <g id="Group-2" transform="translate(56.565973, 0.000000)">
                    <polygon id="Rectangle" fill="#FA8866" transform="translate(106.984024, 43.578039) rotate(8.000000) translate(-106.984024, -43.578039) " points="3.18947333 14.7581036 210.730585 14.9324356 210.778574 72.3979749 3.23746252 72.223643"></polygon>
                    <path d="M63.1299863,38.3985969 C63.5890115,38.3985969 64.0161536,38.3123893 64.4114253,38.1399716 C64.806697,37.9675539 65.1509607,37.7344742 65.4442268,37.4407255 C65.737493,37.1469768 65.9670021,36.7957608 66.1327612,36.387067 C66.2985203,35.9783731 66.3813986,35.5313709 66.3813986,35.046047 C66.3813986,34.5734947 66.2985203,34.1296854 66.1327612,33.7146058 C65.9670021,33.2995261 65.737493,32.9451172 65.4442268,32.6513685 C65.1509607,32.3576198 64.806697,32.1245401 64.4114253,31.9521224 C64.0161536,31.7797047 63.5890115,31.6934971 63.1299863,31.6934971 L61.7911694,31.6934971 L61.7911694,38.3985969 L63.1299863,38.3985969 Z M59.017906,29.0114572 L63.1299863,29.0114572 C63.9715325,29.0114572 64.7556888,29.167908 65.4824788,29.4808142 C66.2092687,29.7937204 66.8467941,30.2247582 67.3950742,30.7739406 C67.9433544,31.3231229 68.373684,31.9616975 68.6860762,32.6896834 C68.9984684,33.4176693 69.1546621,34.203116 69.1546621,35.046047 C69.1546621,35.888978 68.9984684,36.6744247 68.6860762,37.4024106 C68.373684,38.1303965 67.9433544,38.7689711 67.3950742,39.3181534 C66.8467941,39.8673358 66.2092687,40.2983736 65.4824788,40.6112798 C64.7556888,40.924186 63.9715325,41.0806368 63.1299863,41.0806368 L59.017906,41.0806368 L59.017906,29.0114572 Z M80.0405184,35.046047 C80.0405184,34.5479514 79.95764,34.0881777 79.7918809,33.6667122 C79.6261218,33.2452467 79.3998003,32.8812592 79.1129095,32.5747388 C78.8260188,32.2682184 78.4913179,32.028753 78.1087969,31.8563352 C77.7262759,31.6839175 77.3182596,31.59771 76.8847358,31.59771 C76.451212,31.59771 76.0431957,31.6839175 75.6606747,31.8563352 C75.2781537,32.028753 74.9434528,32.2682184 74.656562,32.5747388 C74.3696713,32.8812592 74.1433497,33.2452467 73.9775906,33.6667122 C73.8118315,34.0881777 73.7289532,34.5479514 73.7289532,35.046047 C73.7289532,35.5441426 73.8118315,36.0039163 73.9775906,36.4253818 C74.1433497,36.8468473 74.3696713,37.2108348 74.656562,37.5173552 C74.9434528,37.8238756 75.2781537,38.063341 75.6606747,38.2357587 C76.0431957,38.4081765 76.451212,38.494384 76.8847358,38.494384 C77.3182596,38.494384 77.7262759,38.4081765 78.1087969,38.2357587 C78.4913179,38.063341 78.8260188,37.8238756 79.1129095,37.5173552 C79.3998003,37.2108348 79.6261218,36.8468473 79.7918809,36.4253818 C79.95764,36.0039163 80.0405184,35.5441426 80.0405184,35.046047 Z M82.8137818,35.046047 C82.8137818,35.9145214 82.6575881,36.7191253 82.3451959,37.4598829 C82.0328038,38.2006405 81.6088493,38.8487937 81.0733199,39.4043619 C80.5377905,39.95993 79.9098279,40.3941607 79.1894134,40.707067 C78.4689988,41.0199732 77.7007806,41.1764239 76.8847358,41.1764239 C76.068691,41.1764239 75.3004728,41.0199732 74.5800582,40.707067 C73.8596436,40.3941607 73.2316811,39.95993 72.6961517,39.4043619 C72.1606222,38.8487937 71.7366678,38.2006405 71.4242757,37.4598829 C71.1118835,36.7191253 70.9556898,35.9145214 70.9556898,35.046047 C70.9556898,34.1903443 71.1118835,33.3889332 71.4242757,32.6417898 C71.7366678,31.8946464 72.1606222,31.2433003 72.6961517,30.6877321 C73.2316811,30.132164 73.8596436,29.6979333 74.5800582,29.385027 C75.3004728,29.0721208 76.068691,28.9156701 76.8847358,28.9156701 C77.7007806,28.9156701 78.4689988,29.0721208 79.1894134,29.385027 C79.9098279,29.6979333 80.5377905,30.132164 81.0733199,30.6877321 C81.6088493,31.2433003 82.0328038,31.8946464 82.3451959,32.6417898 C82.6575881,33.3889332 82.8137818,34.1903443 82.8137818,35.046047 Z M89.8744471,41.0806368 L87.770592,41.0806368 L83.9454011,29.0114572 L86.6230347,29.0114572 L88.9181493,36.4828541 L91.2132639,29.0114572 L92.9345999,29.0114572 L95.2297145,36.4828541 L97.5248291,29.0114572 L100.202463,29.0114572 L96.3772718,41.0806368 L94.2734167,41.0806368 L92.0739319,33.9923885 L89.8744471,41.0806368 Z M112.235876,29.0114572 L112.235876,41.0806368 L109.749502,41.0806368 L104.872384,33.9923885 L104.872384,41.0806368 L102.09912,41.0806368 L102.09912,29.0114572 L104.585494,29.0114572 L109.462613,36.0997055 L109.462613,29.0114572 L112.235876,29.0114572 Z M115.184461,29.0114572 L117.957725,29.0114572 L117.957725,38.3985969 L123.408622,38.3985969 L123.408622,41.0806368 L115.184461,41.0806368 L115.184461,29.0114572 Z M133.52944,35.046047 C133.52944,34.5479514 133.446562,34.0881777 133.280803,33.6667122 C133.115043,33.2452467 132.888722,32.8812592 132.601831,32.5747388 C132.31494,32.2682184 131.980239,32.028753 131.597718,31.8563352 C131.215197,31.6839175 130.807181,31.59771 130.373657,31.59771 C129.940134,31.59771 129.532117,31.6839175 129.149596,31.8563352 C128.767075,32.028753 128.432374,32.2682184 128.145484,32.5747388 C127.858593,32.8812592 127.632271,33.2452467 127.466512,33.6667122 C127.300753,34.0881777 127.217875,34.5479514 127.217875,35.046047 C127.217875,35.5441426 127.300753,36.0039163 127.466512,36.4253818 C127.632271,36.8468473 127.858593,37.2108348 128.145484,37.5173552 C128.432374,37.8238756 128.767075,38.063341 129.149596,38.2357587 C129.532117,38.4081765 129.940134,38.494384 130.373657,38.494384 C130.807181,38.494384 131.215197,38.4081765 131.597718,38.2357587 C131.980239,38.063341 132.31494,37.8238756 132.601831,37.5173552 C132.888722,37.2108348 133.115043,36.8468473 133.280803,36.4253818 C133.446562,36.0039163 133.52944,35.5441426 133.52944,35.046047 Z M136.302703,35.046047 C136.302703,35.9145214 136.14651,36.7191253 135.834118,37.4598829 C135.521725,38.2006405 135.097771,38.8487937 134.562242,39.4043619 C134.026712,39.95993 133.39875,40.3941607 132.678335,40.707067 C131.95792,41.0199732 131.189702,41.1764239 130.373657,41.1764239 C129.557613,41.1764239 128.789394,41.0199732 128.06898,40.707067 C127.348565,40.3941607 126.720603,39.95993 126.185073,39.4043619 C125.649544,38.8487937 125.225589,38.2006405 124.913197,37.4598829 C124.600805,36.7191253 124.444611,35.9145214 124.444611,35.046047 C124.444611,34.1903443 124.600805,33.3889332 124.913197,32.6417898 C125.225589,31.8946464 125.649544,31.2433003 126.185073,30.6877321 C126.720603,30.132164 127.348565,29.6979333 128.06898,29.385027 C128.789394,29.0721208 129.557613,28.9156701 130.373657,28.9156701 C131.189702,28.9156701 131.95792,29.0721208 132.678335,29.385027 C133.39875,29.6979333 134.026712,30.132164 134.562242,30.6877321 C135.097771,31.2433003 135.521725,31.8946464 135.834118,32.6417898 C136.14651,33.3889332 136.302703,34.1903443 136.302703,35.046047 Z M144.128407,36.387067 L142.78959,32.3640071 L141.450773,36.387067 L144.128407,36.387067 Z M140.685735,38.7817454 L139.920697,41.0806368 L137.051804,41.0806368 L141.355143,29.0114572 L144.224037,29.0114572 L148.527377,41.0806368 L145.658483,41.0806368 L144.893445,38.7817454 L140.685735,38.7817454 Z M154.344855,38.3985969 C154.80388,38.3985969 155.231022,38.3123893 155.626294,38.1399716 C156.021565,37.9675539 156.365829,37.7344742 156.659095,37.4407255 C156.952361,37.1469768 157.181871,36.7957608 157.34763,36.387067 C157.513389,35.9783731 157.596267,35.5313709 157.596267,35.046047 C157.596267,34.5734947 157.513389,34.1296854 157.34763,33.7146058 C157.181871,33.2995261 156.952361,32.9451172 156.659095,32.6513685 C156.365829,32.3576198 156.021565,32.1245401 155.626294,31.9521224 C155.231022,31.7797047 154.80388,31.6934971 154.344855,31.6934971 L153.006038,31.6934971 L153.006038,38.3985969 L154.344855,38.3985969 Z M150.232774,29.0114572 L154.344855,29.0114572 C155.186401,29.0114572 155.970557,29.167908 156.697347,29.4808142 C157.424137,29.7937204 158.061663,30.2247582 158.609943,30.7739406 C159.158223,31.3231229 159.588552,31.9616975 159.900945,32.6896834 C160.213337,33.4176693 160.369531,34.203116 160.369531,35.046047 C160.369531,35.888978 160.213337,36.6744247 159.900945,37.4024106 C159.588552,38.1303965 159.158223,38.7689711 158.609943,39.3181534 C158.061663,39.8673358 157.424137,40.2983736 156.697347,40.6112798 C155.970557,40.924186 155.186401,41.0806368 154.344855,41.0806368 L150.232774,41.0806368 L150.232774,29.0114572 Z M42.3305096,48.1688851 L44.8168837,48.1688851 L44.8168837,60.2380647 L42.0436203,60.2380647 L42.0436203,54.2034749 L39.2703568,60.2380647 L37.5490209,60.2380647 L34.7757574,54.2034749 L34.7757574,60.2380647 L32.0024939,60.2380647 L32.0024939,48.1688851 L34.4888681,48.1688851 L38.4096888,56.6939406 L42.3305096,48.1688851 Z M56.2765186,54.2034749 C56.2765186,53.7053793 56.1936403,53.2456056 56.0278812,52.8241401 C55.8621221,52.4026746 55.6358006,52.0386871 55.3489098,51.7321667 C55.0620191,51.4256463 54.7273182,51.1861809 54.3447972,51.0137632 C53.9622762,50.8413455 53.5542599,50.7551379 53.1207361,50.7551379 C52.6872123,50.7551379 52.279196,50.8413455 51.896675,51.0137632 C51.514154,51.1861809 51.1794531,51.4256463 50.8925623,51.7321667 C50.6056716,52.0386871 50.37935,52.4026746 50.2135909,52.8241401 C50.0478318,53.2456056 49.9649535,53.7053793 49.9649535,54.2034749 C49.9649535,54.7015705 50.0478318,55.1613442 50.2135909,55.5828097 C50.37935,56.0042753 50.6056716,56.3682628 50.8925623,56.6747831 C51.1794531,56.9813035 51.514154,57.220769 51.896675,57.3931867 C52.279196,57.5656044 52.6872123,57.651812 53.1207361,57.651812 C53.5542599,57.651812 53.9622762,57.5656044 54.3447972,57.3931867 C54.7273182,57.220769 55.0620191,56.9813035 55.3489098,56.6747831 C55.6358006,56.3682628 55.8621221,56.0042753 56.0278812,55.5828097 C56.1936403,55.1613442 56.2765186,54.7015705 56.2765186,54.2034749 Z M59.0497821,54.2034749 C59.0497821,55.0719493 58.8935884,55.8765533 58.5811962,56.6173109 C58.2688041,57.3580684 57.8448496,58.0062216 57.3093202,58.5617898 C56.7737908,59.117358 56.1458282,59.5515887 55.4254136,59.8644949 C54.7049991,60.1774011 53.9367809,60.3338519 53.1207361,60.3338519 C52.3046913,60.3338519 51.5364731,60.1774011 50.8160585,59.8644949 C50.0956439,59.5515887 49.4676814,59.117358 48.9321519,58.5617898 C48.3966225,58.0062216 47.9726681,57.3580684 47.6602759,56.6173109 C47.3478838,55.8765533 47.19169,55.0719493 47.19169,54.2034749 C47.19169,53.3477722 47.3478838,52.5463612 47.6602759,51.7992177 C47.9726681,51.0520743 48.3966225,50.4007283 48.9321519,49.8451601 C49.4676814,49.2895919 50.0956439,48.8553612 50.8160585,48.542455 C51.5364731,48.2295488 52.3046913,48.073098 53.1207361,48.073098 C53.9367809,48.073098 54.7049991,48.2295488 55.4254136,48.542455 C56.1458282,48.8553612 56.7737908,49.2895919 57.3093202,49.8451601 C57.8448496,50.4007283 58.2688041,51.0520743 58.5811962,51.7992177 C58.8935884,52.5463612 59.0497821,53.3477722 59.0497821,54.2034749 Z M71.5613445,48.1688851 L71.5613445,60.2380647 L69.0749704,60.2380647 L64.1978519,53.1498164 L64.1978519,60.2380647 L61.4245884,60.2380647 L61.4245884,48.1688851 L63.9109626,48.1688851 L68.7880811,55.2571335 L68.7880811,48.1688851 L71.5613445,48.1688851 Z M74.5099295,48.1688851 L83.1166092,48.1688851 L83.1166092,50.850925 L77.283193,50.850925 L77.283193,52.7666678 L82.6384603,52.7666678 L82.6384603,55.4487077 L77.283193,55.4487077 L77.283193,57.5560248 L83.3078688,57.5560248 L83.3078688,60.2380647 L74.5099295,60.2380647 L74.5099295,48.1688851 Z M94.193725,54.2034749 C94.193725,53.7053793 94.1108467,53.2456056 93.9450876,52.8241401 C93.7793285,52.4026746 93.553007,52.0386871 93.2661162,51.7321667 C92.9792254,51.4256463 92.6445246,51.1861809 92.2620036,51.0137632 C91.8794826,50.8413455 91.4714663,50.7551379 91.0379424,50.7551379 C90.6044186,50.7551379 90.1964023,50.8413455 89.8138813,51.0137632 C89.4313603,51.1861809 89.0966595,51.4256463 88.8097687,51.7321667 C88.5228779,52.0386871 88.2965564,52.4026746 88.1307973,52.8241401 C87.9650382,53.2456056 87.8821599,53.7053793 87.8821599,54.2034749 C87.8821599,54.7015705 87.9650382,55.1613442 88.1307973,55.5828097 C88.2965564,56.0042753 88.5228779,56.3682628 88.8097687,56.6747831 C89.0966595,56.9813035 89.4313603,57.220769 89.8138813,57.3931867 C90.1964023,57.5656044 90.6044186,57.651812 91.0379424,57.651812 C91.4714663,57.651812 91.8794826,57.5656044 92.2620036,57.3931867 C92.6445246,57.220769 92.9792254,56.9813035 93.2661162,56.6747831 C93.553007,56.3682628 93.7793285,56.0042753 93.9450876,55.5828097 C94.1108467,55.1613442 94.193725,54.7015705 94.193725,54.2034749 Z M96.9669885,54.2034749 C96.9669885,55.0719493 96.8107947,55.8765533 96.4984026,56.6173109 C96.1860104,57.3580684 95.762056,58.0062216 95.2265266,58.5617898 C94.6909972,59.117358 94.0630346,59.5515887 93.34262,59.8644949 C92.6222054,60.1774011 91.8539873,60.3338519 91.0379424,60.3338519 C90.2218976,60.3338519 89.4536794,60.1774011 88.7332649,59.8644949 C88.0128503,59.5515887 87.3848877,59.117358 86.8493583,58.5617898 C86.3138289,58.0062216 85.8898745,57.3580684 85.5774823,56.6173109 C85.2650902,55.8765533 85.1088964,55.0719493 85.1088964,54.2034749 C85.1088964,53.3477722 85.2650902,52.5463612 85.5774823,51.7992177 C85.8898745,51.0520743 86.3138289,50.4007283 86.8493583,49.8451601 C87.3848877,49.2895919 88.0128503,48.8553612 88.7332649,48.542455 C89.4536794,48.2295488 90.2218976,48.073098 91.0379424,48.073098 C91.8539873,48.073098 92.6222054,48.2295488 93.34262,48.542455 C94.0630346,48.8553612 94.6909972,49.2895919 95.2265266,49.8451601 C95.762056,50.4007283 96.1860104,51.0520743 96.4984026,51.7992177 C96.8107947,52.5463612 96.9669885,53.3477722 96.9669885,54.2034749 Z M104.394235,48.1688851 L112.714025,48.1688851 L112.714025,50.850925 L107.167498,50.850925 L107.167498,53.3413907 L111.662098,53.3413907 L111.662098,56.0234306 L107.167498,56.0234306 L107.167498,60.2380647 L104.394235,60.2380647 L104.394235,48.1688851 Z M123.121733,54.2034749 C123.121733,53.7053793 123.038854,53.2456056 122.873095,52.8241401 C122.707336,52.4026746 122.481015,52.0386871 122.194124,51.7321667 C121.907233,51.4256463 121.572532,51.1861809 121.190011,51.0137632 C120.80749,50.8413455 120.399474,50.7551379 119.96595,50.7551379 C119.532426,50.7551379 119.12441,50.8413455 118.741889,51.0137632 C118.359368,51.1861809 118.024667,51.4256463 117.737776,51.7321667 C117.450885,52.0386871 117.224564,52.4026746 117.058805,52.8241401 C116.893046,53.2456056 116.810167,53.7053793 116.810167,54.2034749 C116.810167,54.7015705 116.893046,55.1613442 117.058805,55.5828097 C117.224564,56.0042753 117.450885,56.3682628 117.737776,56.6747831 C118.024667,56.9813035 118.359368,57.220769 118.741889,57.3931867 C119.12441,57.5656044 119.532426,57.651812 119.96595,57.651812 C120.399474,57.651812 120.80749,57.5656044 121.190011,57.3931867 C121.572532,57.220769 121.907233,56.9813035 122.194124,56.6747831 C122.481015,56.3682628 122.707336,56.0042753 122.873095,55.5828097 C123.038854,55.1613442 123.121733,54.7015705 123.121733,54.2034749 Z M125.894996,54.2034749 C125.894996,55.0719493 125.738802,55.8765533 125.42641,56.6173109 C125.114018,57.3580684 124.690064,58.0062216 124.154534,58.5617898 C123.619005,59.117358 122.991042,59.5515887 122.270628,59.8644949 C121.550213,60.1774011 120.781995,60.3338519 119.96595,60.3338519 C119.149905,60.3338519 118.381687,60.1774011 117.661272,59.8644949 C116.940858,59.5515887 116.312895,59.117358 115.777366,58.5617898 C115.241836,58.0062216 114.817882,57.3580684 114.50549,56.6173109 C114.193098,55.8765533 114.036904,55.0719493 114.036904,54.2034749 C114.036904,53.3477722 114.193098,52.5463612 114.50549,51.7992177 C114.817882,51.0520743 115.241836,50.4007283 115.777366,49.8451601 C116.312895,49.2895919 116.940858,48.8553612 117.661272,48.542455 C118.381687,48.2295488 119.149905,48.073098 119.96595,48.073098 C120.781995,48.073098 121.550213,48.2295488 122.270628,48.542455 C122.991042,48.8553612 123.619005,49.2895919 124.154534,49.8451601 C124.690064,50.4007283 125.114018,51.0520743 125.42641,51.7992177 C125.738802,52.5463612 125.894996,53.3477722 125.894996,54.2034749 Z M133.146921,48.1688851 C133.771705,48.1688851 134.34229,48.2710571 134.858694,48.475404 C135.375097,48.6797509 135.818177,48.954338 136.187948,49.2991734 C136.557718,49.6440088 136.844604,50.0495036 137.048616,50.5156701 C137.252627,50.9818365 137.354631,51.4767317 137.354631,52.0003707 C137.354631,52.6772699 137.236689,53.2456012 137.000801,53.7053818 C136.764913,54.1651624 136.503527,54.5387285 136.216637,54.8260913 C135.929746,55.1134542 135.665173,55.3209909 135.422909,55.4487077 L135.059516,55.640282 L137.73715,60.2380647 L134.676997,60.2380647 L132.477512,56.2150049 L131.043066,56.2150049 L131.043066,60.2380647 L128.269802,60.2380647 L128.269802,48.1688851 L133.146921,48.1688851 Z M133.146921,53.532965 C133.631447,53.532965 134.007587,53.40525 134.275352,53.1498164 C134.543117,52.8943827 134.676997,52.5750955 134.676997,52.191945 C134.676997,51.8087945 134.543117,51.4895073 134.275352,51.2340736 C134.007587,50.97864 133.631447,50.850925 133.146921,50.850925 L131.043066,50.850925 L131.043066,53.532965 L133.146921,53.532965 Z M144.877507,48.1688851 L153.197297,48.1688851 L153.197297,50.850925 L147.65077,50.850925 L147.65077,53.3413907 L152.14537,53.3413907 L152.14537,56.0234306 L147.65077,56.0234306 L147.65077,60.2380647 L144.877507,60.2380647 L144.877507,48.1688851 Z M160.353592,48.1688851 C160.978377,48.1688851 161.548962,48.2710571 162.065365,48.475404 C162.581769,48.6797509 163.024849,48.954338 163.394619,49.2991734 C163.76439,49.6440088 164.051276,50.0495036 164.255287,50.5156701 C164.459298,50.9818365 164.561303,51.4767317 164.561303,52.0003707 C164.561303,52.6772699 164.44336,53.2456012 164.207472,53.7053818 C163.971584,54.1651624 163.710199,54.5387285 163.423308,54.8260913 C163.136417,55.1134542 162.871844,55.3209909 162.629581,55.4487077 L162.266188,55.640282 L164.943822,60.2380647 L161.883669,60.2380647 L159.684184,56.2150049 L158.249737,56.2150049 L158.249737,60.2380647 L155.476474,60.2380647 L155.476474,48.1688851 L160.353592,48.1688851 Z M160.353592,53.532965 C160.838119,53.532965 161.214259,53.40525 161.482024,53.1498164 C161.749788,52.8943827 161.883669,52.5750955 161.883669,52.191945 C161.883669,51.8087945 161.749788,51.4895073 161.482024,51.2340736 C161.214259,50.97864 160.838119,50.850925 160.353592,50.850925 L158.249737,50.850925 L158.249737,53.532965 L160.353592,53.532965 Z M167.031739,48.1688851 L175.638418,48.1688851 L175.638418,50.850925 L169.805002,50.850925 L169.805002,52.7666678 L175.160269,52.7666678 L175.160269,55.4487077 L169.805002,55.4487077 L169.805002,57.5560248 L175.829678,57.5560248 L175.829678,60.2380647 L167.031739,60.2380647 L167.031739,48.1688851 Z M178.395744,48.1688851 L187.002423,48.1688851 L187.002423,50.850925 L181.169007,50.850925 L181.169007,52.7666678 L186.524275,52.7666678 L186.524275,55.4487077 L181.169007,55.4487077 L181.169007,57.5560248 L187.193683,57.5560248 L187.193683,60.2380647 L178.395744,60.2380647 L178.395744,48.1688851 Z" id="DOWNLOADMONEOFORFREE" fill="#FFFFFF" fill-rule="nonzero" transform="translate(109.598088, 44.624761) rotate(8.000000) translate(-109.598088, -44.624761) "></path>
                </g>
                <g id="background-4" transform="translate(168.597765, 207.974922) scale(-1, 1) translate(-168.597765, -207.974922) translate(73.097765, 125.974922)" fill="#CFD2E6">
                    <path d="M2.51662943,163.410658 L117.983927,163.410658 C120.031222,163.410658 121.210148,161.129441 120.013902,159.492942 C116.993128,155.360515 111.767987,150.045715 107.267284,154.718151 C100.464866,161.780629 86.859435,145.301513 78.7693962,151.820452 C70.6793573,158.33998 65.8991513,160.1106 60.1998127,150.261013 C54.4998769,140.412014 46.4104353,124.657028 40.1586616,138.600805 C33.9080823,152.545171 35.5624015,155.98582 26.0019895,149.648061 C16.4409802,143.309712 17.176764,161.237678 9.82250903,157.25349 C5.87662932,155.115805 2.72446447,157.044663 0.650294618,159.29235 C-0.808134057,160.872378 0.348097685,163.410658 2.51662943,163.410658" id="Fill-103-Copy"></path>
                    <path d="M186.885004,23.5275873 L115.032163,23.5275873 C110.545583,23.5275873 110.205943,16.9423711 114.680492,16.6264617 C116.654476,16.4870633 119.360491,16.8735771 123.060439,18.11549 C139.202133,23.5275873 147.322954,23.0768055 150.41118,5.4836422 C153.499406,-12.1095211 162.723363,19.4687406 168.719351,14.5056148 C174.714415,9.54429926 172.869068,16.3096472 182.09395,14.9563966 C186.518525,14.3073794 188.820119,16.2535258 190.018576,18.454029 C191.269784,20.7531972 189.547522,23.5275873 186.885004,23.5275873" id="Fill-101-Copy"></path>
                </g>
                <g id="gift" transform="translate(44.248950, 173.857977) scale(-1, 1) rotate(-23.000000) translate(-44.248950, -173.857977) translate(21.248950, 152.857977)" fill-rule="nonzero">
                    <path d="M35.3958428,3.63508602 C34.0552399,1.22263692 32.4495054,0 30.6226813,0 C28.5198248,0 26.3359169,1.65358852 24.1293285,4.91719663 C23.8470547,5.33495065 23.5826263,5.75262007 23.3388563,6.15582292 C23.0950864,5.75262007 22.830658,5.33495065 22.5477688,4.91719663 C20.3424991,1.65358852 18.1578879,6.01118034e-16 16.0550314,6.01118034e-16 C14.2282952,6.01118034e-16 12.6218574,1.22263692 11.2819578,3.63508602 C10.280066,5.44070046 10.6412815,6.73744684 11.120646,7.5067978 C11.9845216,8.89338922 13.9157809,9.82796367 17.0247488,10.3619579 C19.411901,10.7730285 21.9379484,10.8338558 23.2310807,10.8338558 L23.2317839,10.8338558 C23.268178,10.8338558 23.3038688,10.8338558 23.3389443,10.8338558 C23.3746351,10.8338558 23.4103259,10.8338558 23.4468078,10.8338558 C24.7400281,10.8338558 27.2659876,10.7730285 29.6532276,10.3619579 C32.7614922,9.82796367 34.6927515,8.89338922 35.5581216,7.5067978 C36.0359037,6.73744684 36.3985258,5.44070046 35.3958428,3.63508602 Z" id="Path" fill="#4B61AF"></path>
                    <path d="M42.3823909,17.239408 C42.3823909,16.1946255 41.5501005,15.3479624 40.5245781,15.3479624 L5.24571857,15.3479624 C4.22028318,15.3479624 3.38868911,16.1946255 3.38868911,17.239408 L3.38868911,39.6384236 C3.38868911,40.6832061 4.22028318,41.5297806 5.24571857,41.5297806 L40.5246651,41.5297806 C41.5501005,41.5297806 42.3824779,40.6832061 42.3824779,39.6384236 L42.3824779,17.239408 L42.3823909,17.239408 Z" id="Path" fill="#DF7251"></path>
                    <path d="M45.102888,18.0569704 C45.102888,19.0540572 44.2730159,19.862069 43.25056,19.862069 L2.51991271,19.862069 C1.49745681,19.8619843 0.66819222,19.0539725 0.66819222,18.0568858 L0.66819222,9.02902325 C0.66819222,8.0319365 1.49745681,7.22257053 2.51991271,7.22257053 L43.2506468,7.22257053 C44.2731027,7.22257053 45.1029748,8.03185187 45.1029748,9.02902325 L45.1029748,18.0569704 L45.102888,18.0569704 Z" id="Path" fill="#FB8966"></path>
                    <rect id="Rectangle" fill="#546EC1" x="17.8980059" y="7.22257053" width="9.97515528" height="12.6394984"></rect>
                    <polygon id="Path" fill="#CB6A4C" points="3.38868911 22.5737513 42.3824779 26.1818182 42.3824779 20.7648903 3.38868911 20.7648903"></polygon>
                    <polygon id="Rectangle" fill="#4B61AF" points="17.8980059 19.862069 27.8731612 19.862069 27.8731612 41.5297806 17.8980059 41.5297806"></polygon>
                    <polygon id="Path" fill="#37498A" points="17.8980059 23.4164618 27.8731612 24.3761755 27.8731612 19.862069 17.8980059 19.862069"></polygon>
                </g>
                <g id="Group-18" transform="translate(253.077520, 192.460596) scale(-1, 1) rotate(22.000000) translate(-253.077520, -192.460596) translate(234.577520, 173.960596)">
                    <ellipse id="Oval" stroke="#FB8966" stroke-width="2" fill="#FFFFFF" cx="18.136646" cy="18.0564263" rx="18.136646" ry="18.0564263"></ellipse>
                    <g id="Group-11" transform="translate(10.881988, 9.028213)" fill="#FB8966">
                        <path d="M3.86092919,2.7631643 C3.1503354,2.7631643 2.57359006,3.38239351 2.57359006,4.14533063 C2.57359006,4.90826775 3.1503354,5.5263286 3.86092919,5.5263286 C4.57043478,5.5263286 5.14826832,4.90826775 5.14826832,4.14533063 C5.14826832,3.38239351 4.57043478,2.7631643 3.86092919,2.7631643 M3.86092919,8.2894929 C1.73241242,8.2894929 2.27373675e-13,6.43063692 2.27373675e-13,4.14533063 C2.27373675e-13,1.86002434 1.73241242,-3.26849658e-13 3.86092919,-3.26849658e-13 C5.98944596,-3.26849658e-13 7.72185839,1.86002434 7.72185839,4.14533063 C7.72185839,6.43063692 5.98944596,8.2894929 3.86092919,8.2894929" id="Fill-18"></path>
                        <path d="M11.5824611,13.816873 C10.8751319,13.816873 10.295122,14.4384389 10.295122,15.1990394 C10.295122,15.9584714 10.8751319,16.5800373 11.5824611,16.5800373 C12.2897903,16.5800373 12.8698002,15.9584714 12.8698002,15.1990394 C12.8698002,14.4384389 12.2897903,13.816873 11.5824611,13.816873 M11.5824611,19.3432016 C9.45394435,19.3432016 7.72153193,17.4843456 7.72153193,15.1990394 C7.72153193,12.9137331 9.45394435,11.0537087 11.5824611,11.0537087 C13.7109779,11.0537087 15.4433903,12.9137331 15.4433903,15.1990394 C15.4433903,17.4843456 13.7109779,19.3432016 11.5824611,19.3432016" id="Fill-20"></path>
                        <path d="M1.28712149,19.3437858 C0.995484224,19.3437858 0.704935155,19.2386337 0.463355031,19.023656 C-0.0829207453,18.5352828 -0.156918261,17.6648568 0.299037019,17.0783416 L13.1680755,0.497019067 C13.6262072,-0.088327789 14.4369153,-0.163102637 14.9799265,0.32059716 C15.525114,0.810138742 15.5969352,1.68056471 15.1420681,2.26941663 L2.27194137,18.8495708 C2.02056745,19.1732057 1.65493267,19.3437858 1.28712149,19.3437858" id="Fill-22"></path>
                    </g>
                </g>
                <g id="man-4" transform="translate(144.955150, 180.500000) scale(-1, 1) translate(-144.955150, -180.500000) translate(38.973124, 57.000000)">
                    <path d="M165.686132,9.80992323 C163.989579,3.16343324 165.175326,0.326944936 169.243375,1.30045831 C175.345447,2.76072837 172.61176,9.27615704 170.081159,12.8576568 C168.394092,15.2453233 166.929083,14.2294121 165.686132,9.80992323 Z" id="Path-5" fill="#FFC161"></path>
                    <path d="M5.92581435,33.1040097 C6.55468498,20.3693864 7.82522063,17.4568819 9.73742129,24.3664961 C12.6057223,34.7309175 13.2747608,32.5248264 10.5742934,36.2071053 C8.77398182,38.6619579 7.2244888,37.6275927 5.92581435,33.1040097 Z" id="Path-5-Copy" fill="#FFC161" transform="translate(9.103892, 29.111693) scale(-1, 1) rotate(-315.000000) translate(-9.103892, -29.111693) "></path>
                    <g id="Group" transform="translate(9.937175, 0.113898)">
                        <path d="M47.0270498,163.758306 C47.0270498,163.758306 43.4116268,159.969635 41.1177264,164.574745 C38.8238268,169.180717 41.274785,181.733929 43.7792729,178.439274 C46.28376,175.143757 47.9020356,166.486558 47.0270498,163.758306" id="Fill-1" fill="#546EC0" transform="translate(43.735359, 170.638007) rotate(-10.000000) translate(-43.735359, -170.638007) "></path>
                        <path d="M55.9163215,169.131868 L47.1169288,161.87691 C47.1169288,161.87691 45.8474655,164.442711 46.2890443,166.797458 L55.6584179,175.941816 L55.9163215,169.131868 Z" id="Fill-3" fill="#FFC161" transform="translate(51.056039, 168.909363) rotate(-10.000000) translate(-51.056039, -168.909363) "></path>
                        <path d="M181.205717,223.56716 L183.041063,236.385137 C183.041063,236.385137 186.086586,236.416913 187.399931,234.070472 L186.214931,217.939354 L181.205717,223.56716 Z" id="Fill-5" fill="#FFC161" transform="translate(184.302824, 227.162256) rotate(-10.000000) translate(-184.302824, -227.162256) "></path>
                        <path d="M108.768643,117.931874 C108.768643,117.931874 93.2843774,146.99278 86.2767933,167.081422 C85.4400662,169.479436 82.5666303,170.442082 80.4532477,169.018947 C75.0868765,165.402992 65.7170742,159.266349 58.755274,155.643521 C56.8662227,154.661163 54.6004027,155.919876 54.4403459,158.037176 C54.4003281,158.562984 54.3673876,159.1143 54.3459193,159.678818 C54.2024834,163.422922 55.4560691,167.0928 57.7966232,170.027754 C62.8519394,176.368486 73.9386477,189.360455 83.801172,194.612971 C86.7379701,196.177624 90.3478888,195.685285 92.8128284,193.46301 C100.139834,186.854154 116.837438,170.523848 128.099959,149.741263 C128.903231,148.259492 131.019555,148.224677 131.849596,149.695771 C137.908895,160.43071 156.557436,187.328279 163.947708,218.204169 L167.265484,232.227752 C167.995778,235.308825 171.027294,237.273675 174.141742,236.685871 L174.142624,236.685872 C176.912489,236.161036 178.918017,233.763312 178.948682,230.949441 C179.067972,219.850478 178.394764,192.025596 169.633409,172.114635 C158.456651,146.713271 149.277333,124.017009 139.830224,112.006269 L108.768643,117.931874 Z" id="Fill-7" fill="#546EC0" transform="translate(116.647427, 174.397981) rotate(-10.000000) translate(-116.647427, -174.397981) "></path>
                        <g id="Group-11" transform="translate(191.705011, 235.413612) rotate(-10.000000) translate(-191.705011, -235.413612) translate(182.762302, 231.719167)">
                            <mask id="mask-2" fill="white">
                                <use xlink:href="#path-1"></use>
                            </mask>
                            <g id="Clip-10"></g>
                            <path d="M1.65282906,0.749511137 C1.65282906,0.749511137 -1.68693351,4.93581147 3.31210792,6.63281782 C8.31114935,8.32982417 20.7186324,4.12507811 17.0201545,2.03544141 C13.3216767,-0.0541952855 4.30078366,-0.511824844 1.65282906,0.749511137" id="Fill-9" fill="#546EC0" mask="url(#mask-2)"></path>
                        </g>
                        <path d="M82.5989557,56.4776185 C82.5989557,56.4776185 82.1315793,42.7642511 78.7946112,38.2488025 C75.457644,33.7342281 72.4161929,23.2612013 72.4161929,23.2612013 L93.0308575,15.7811603 L100.485684,25.1161517 C100.485684,25.1161517 101.395994,38.7294406 99.2538599,44.9238012 C99.2538599,44.9238012 99.3722986,52.5591938 101.549849,57.1058243 C102.499445,59.0892358 90.2495839,62.0952533 82.5989557,56.4776185" id="Fill-12" fill="#FFC161" transform="translate(87.009070, 37.744486) rotate(-10.000000) translate(-87.009070, -37.744486) "></path>
                        <g id="Group-16" transform="translate(87.018908, 27.067443) rotate(-10.000000) translate(-87.018908, -27.067443) translate(67.029324, 3.317443)" fill="#546EC0">
                            <path d="M13.5254199,24.208955 C13.4432512,22.7016761 14.9682327,21.6406079 16.3686358,22.2212089 C18.0261476,22.9089708 20.0211698,24.1606448 21.9481598,25.9068397 C28.0560377,31.4405561 37.9657671,27.5625628 36.0900221,21.7574308 C34.2142771,15.9522989 41.2207103,19.041518 38.2317111,12.0497113 C35.2418284,5.05790458 31.6564431,12.4651792 28.3467207,5.41627859 C25.0361148,-1.632622 8.72252328,-2.74727058 5.56918661,8.16469105 C5.56918661,8.16469105 -9.11516627,18.3405806 9.7156167,35.5442898 C10.0584283,35.8587455 10.5938506,35.4828041 10.403007,35.0603092 C9.74212275,33.6004622 9.01232278,31.6074459 9.10862811,30.09314 C9.17842738,28.9969372 10.7838106,28.9293029 10.957867,30.014087 C11.4402772,33.040942 12.7267042,38.8610062 15.8650208,43.1491972 C21.0230985,50.1972194 32.4745966,46.963948 32.6954804,38.251419 C32.698131,38.1381096 32.6990145,38.0248002 32.6990145,37.9088556 C32.6954804,36.691438 31.9020659,35.5961135 30.7313819,35.2403746 C28.5110583,34.5657882 24.5819778,34.0387676 20.8145843,36.8583279 C18.8407669,38.3348639 15.9913663,37.4793338 15.2695182,35.131457 C14.5070274,32.6544602 13.7931311,29.1172736 13.5254199,24.208955" id="Fill-14"></path>
                        </g>
                        <path d="M91.8148305,53.3616913 C91.8148305,53.3616913 104.130037,58.7871934 110.287369,52.3706036 L117.988282,59.2052359 L129.989412,119.206143 L125.658247,118.559359 C114.289716,116.859786 102.679801,117.958343 91.8524322,121.755448 L88.4944099,104.187926 L86.6632653,78.8357379" id="Fill-17" fill="#FFFFFF" transform="translate(108.326339, 87.063026) rotate(-10.000000) translate(-108.326339, -87.063026) "></path>
                        <path d="M94.7320806,42.9637461 C94.7320806,42.9637461 96.1138618,42.7025321 98.2649599,42.3332486 C98.2649599,42.3332486 97.5876731,45.8214726 94.7320806,42.9637461" id="Fill-19" fill="#FFC161" transform="translate(96.498520, 43.210991) rotate(-10.000000) translate(-96.498520, -43.210991) "></path>
                        <path d="M14.5404002,22.492699 C14.5404002,22.492699 46.1724213,60.4093818 89.4244437,60.5193165 C89.4244437,60.5193165 97.2411673,109.670317 91.7618672,128.975785 C91.3141796,130.552565 89.375622,131.148885 88.0977794,130.101969 C82.9988537,125.928356 76.6513813,113.881663 73.3183963,86.6803651 C73.3183963,86.6803651 47.4727186,85.5454435 8.82334905,26.9949735 L14.5404002,22.492699 Z" id="Fill-21" fill="#FA8866" transform="translate(51.266860, 76.559359) rotate(-10.000000) translate(-51.266860, -76.559359) "></path>
                        <path d="M107.672689,116.78306 C107.672689,116.78306 119.998689,114.271096 124.989098,118.773383 C128.245068,121.710491 135.627858,121.802222 135.023225,117.069544 C134.419482,112.335998 123.293087,109.401451 123.293087,109.401451 L114.39379,109.392549" id="Fill-23" fill="#FFFFFF" transform="translate(121.365464, 115.111121) rotate(-10.000000) translate(-121.365464, -115.111121) "></path>
                        <path d="M124.441887,111.495297 C124.441887,111.495297 105.753976,53.1591517 105.745398,44.6304727 C105.745398,44.6304727 125.062628,52.7858898 164.856313,12.6414406 L170.204054,16.8290091 C170.204054,16.8290091 158.539288,52.8422122 125.502417,67.0648924 C125.502417,67.0648924 133.624785,116.681758 124.441887,111.495297" id="Fill-25" fill="#FA8866" transform="translate(137.974726, 62.258375) rotate(-10.000000) translate(-137.974726, -62.258375) "></path>
                    </g>
                </g>
                <g id="Group-7-Copy-3" transform="translate(269.929123, 132.394930) rotate(-33.000000) translate(-269.929123, -132.394930) translate(247.429123, 117.394930)">
                    <path d="M3.75,0 L41.25,0 C43.3209229,0 45,1.67907715 45,3.75 L45,26.25 C45,28.3209229 43.3209229,30 41.25,30 L3.75,30 C1.67907715,30 0,28.3209229 0,26.25 L0,3.75 C0,1.67907715 1.67907715,0 3.75,0 Z" id="Path" fill="#61CCBA" fill-rule="nonzero"></path>
                    <path d="M37.2913296,18.0002386 C36.2225959,18.0031682 35.2077288,18.506556 34.5101775,19.380039 C33.4962158,18.1183956 31.8621079,17.6687154 30.4117804,18.2526649 C28.9614531,18.8361262 28,20.3301777 28,22 C28,23.6698223 28.9614531,25.1638738 30.4117804,25.7473351 C31.8621079,26.3312846 33.4962158,25.8816044 34.5101775,24.619961 C35.6332306,26.006597 37.490048,26.3849923 39.0051059,25.5359218 C40.5197113,24.6868515 41.2996471,22.8300286 40.893157,21.0420494 C40.4862143,19.2535818 38.9983161,17.9968208 37.2913296,18.0002386 L37.2913296,18.0002386 Z" id="Path" fill="#FA8866"></path>
                    <path d="M5,5 L11,5 C11.5522461,5 12,5.44775388 12,6 L12,12 C12,12.5522461 11.5522461,13 11,13 L5,13 C4.44775388,13 4,12.5522461 4,12 L4,6 C4,5.44775388 4.44775388,5 5,5 Z" id="Path" fill="#FFC24F" fill-rule="nonzero"></path>
                    <polygon id="Path" fill="#FFA230" fill-rule="nonzero" points="5 8 8 8 8 10 5 10"></polygon>
                    <polygon id="Path" fill="#FFA230" fill-rule="nonzero" points="9 8 12 8 12 10 9 10"></polygon>
                    <g id="Group" transform="translate(5.000000, 5.000000)" fill="#5EB3D1" fill-rule="nonzero">
                        <polygon id="Path" points="34.1052632 0 36 0 36 2.86363636 34.1052632 2.86363636"></polygon>
                        <polygon id="Path" points="30.3157895 0 32.2105263 0 32.2105263 2.86363636 30.3157895 2.86363636"></polygon>
                        <polygon id="Path" points="26.5263158 0 28.4210526 0 28.4210526 2.86363636 26.5263158 2.86363636"></polygon>
                        <polygon id="Path" points="22.7368421 0 24.6315789 0 24.6315789 2.86363636 22.7368421 2.86363636"></polygon>
                        <polygon id="Path" points="0 14.3181818 1.89473684 14.3181818 1.89473684 16.2272727 0 16.2272727"></polygon>
                        <polygon id="Path" points="3.78947368 14.3181818 5.68421053 14.3181818 5.68421053 16.2272727 3.78947368 16.2272727"></polygon>
                        <polygon id="Path" points="7.57894737 14.3181818 9.47368421 14.3181818 9.47368421 16.2272727 7.57894737 16.2272727"></polygon>
                        <polygon id="Path" points="11.3684211 14.3181818 13.2631579 14.3181818 13.2631579 16.2272727 11.3684211 16.2272727"></polygon>
                        <polygon id="Path" points="15.1578947 14.3181818 17.0526316 14.3181818 17.0526316 16.2272727 15.1578947 16.2272727"></polygon>
                        <polygon id="Path" points="18.9473684 14.3181818 20.8421053 14.3181818 20.8421053 16.2272727 18.9473684 16.2272727"></polygon>
                        <polygon id="Path" points="0 19.0909091 5.68421053 19.0909091 5.68421053 21 0 21"></polygon>
                        <polygon id="Path" points="15.1578947 19.0909091 20.8421053 19.0909091 20.8421053 21 15.1578947 21"></polygon>
                    </g>
                </g>
                <g id="Group-7-Copy" transform="translate(252.620649, 265.905754) rotate(26.000000) translate(-252.620649, -265.905754) translate(230.120649, 250.905754)">
                    <path d="M3.75,0 L41.25,0 C43.3209229,0 45,1.67907715 45,3.75 L45,26.25 C45,28.3209229 43.3209229,30 41.25,30 L3.75,30 C1.67907715,30 0,28.3209229 0,26.25 L0,3.75 C0,1.67907715 1.67907715,0 3.75,0 Z" id="Path" fill="#546EC0" fill-rule="nonzero"></path>
                    <path d="M37.2913296,18.0002386 C36.2225959,18.0031682 35.2077288,18.506556 34.5101775,19.380039 C33.4962158,18.1183956 31.8621079,17.6687154 30.4117804,18.2526649 C28.9614531,18.8361262 28,20.3301777 28,22 C28,23.6698223 28.9614531,25.1638738 30.4117804,25.7473351 C31.8621079,26.3312846 33.4962158,25.8816044 34.5101775,24.619961 C35.6332306,26.006597 37.490048,26.3849923 39.0051059,25.5359218 C40.5197113,24.6868515 41.2996471,22.8300286 40.893157,21.0420494 C40.4862143,19.2535818 38.9983161,17.9968208 37.2913296,18.0002386 L37.2913296,18.0002386 Z" id="Path" fill="#FA8866"></path>
                    <path d="M5,5 L11,5 C11.5522461,5 12,5.44775388 12,6 L12,12 C12,12.5522461 11.5522461,13 11,13 L5,13 C4.44775388,13 4,12.5522461 4,12 L4,6 C4,5.44775388 4.44775388,5 5,5 Z" id="Path" fill="#FFC24F" fill-rule="nonzero"></path>
                    <polygon id="Path" fill="#FFA230" fill-rule="nonzero" points="5 8 8 8 8 10 5 10"></polygon>
                    <polygon id="Path" fill="#FFA230" fill-rule="nonzero" points="9 8 12 8 12 10 9 10"></polygon>
                    <g id="Group" transform="translate(5.000000, 5.000000)" fill="#5EB3D1" fill-rule="nonzero">
                        <polygon id="Path" points="34.1052632 0 36 0 36 2.86363636 34.1052632 2.86363636"></polygon>
                        <polygon id="Path" points="30.3157895 0 32.2105263 0 32.2105263 2.86363636 30.3157895 2.86363636"></polygon>
                        <polygon id="Path" points="26.5263158 0 28.4210526 0 28.4210526 2.86363636 26.5263158 2.86363636"></polygon>
                        <polygon id="Path" points="22.7368421 0 24.6315789 0 24.6315789 2.86363636 22.7368421 2.86363636"></polygon>
                        <polygon id="Path" points="0 14.3181818 1.89473684 14.3181818 1.89473684 16.2272727 0 16.2272727"></polygon>
                        <polygon id="Path" points="3.78947368 14.3181818 5.68421053 14.3181818 5.68421053 16.2272727 3.78947368 16.2272727"></polygon>
                        <polygon id="Path" points="7.57894737 14.3181818 9.47368421 14.3181818 9.47368421 16.2272727 7.57894737 16.2272727"></polygon>
                        <polygon id="Path" points="11.3684211 14.3181818 13.2631579 14.3181818 13.2631579 16.2272727 11.3684211 16.2272727"></polygon>
                        <polygon id="Path" points="15.1578947 14.3181818 17.0526316 14.3181818 17.0526316 16.2272727 15.1578947 16.2272727"></polygon>
                        <polygon id="Path" points="18.9473684 14.3181818 20.8421053 14.3181818 20.8421053 16.2272727 18.9473684 16.2272727"></polygon>
                        <polygon id="Path" points="0 19.0909091 5.68421053 19.0909091 5.68421053 21 0 21"></polygon>
                        <polygon id="Path" points="15.1578947 19.0909091 20.8421053 19.0909091 20.8421053 21 15.1578947 21"></polygon>
                    </g>
                </g>
            </g>
        </g>
    </g>
</svg>