<?xml version="1.0" encoding="UTF-8"?>
<svg width="255px" height="294px" viewBox="0 0 255 294" version="1.1" xmlns="http://www.w3.org/2000/svg" xmlns:xlink="http://www.w3.org/1999/xlink">
    <!-- Generator: Sketch 53.2 (72643) - https://sketchapp.com -->
    <title>2</title>
    <desc>Created with Sketch.</desc>
    <defs>
        <polygon id="path-1" points="0.9392 0.557239861 15.6330667 0.557239861 15.6330667 18.7310941 0.9392 18.7310941"></polygon>
        <polygon id="path-3" points="0 0.967231174 14.76 0.967231174 14.76 19.035 0 19.035"></polygon>
        <polygon id="path-5" points="0.247137891 0.344263126 9.69546001 0.344263126 9.69546001 21 0.247137891 21"></polygon>
        <polygon id="path-7" points="0.495391984 0.37162963 47.4178019 0.37162963 47.4178019 57.7856488 0.495391984 57.7856488"></polygon>
    </defs>
    <g id="Page-1" stroke="none" stroke-width="1" fill="none" fill-rule="evenodd">
        <g id="2" transform="translate(-6.000000, -5.000000)">
            <g transform="translate(5.954724, -9.677648)">
                <g id="background-1" transform="translate(0.000000, 81.677648)">
                    <path d="M163.161127,74.1801574 C163.161127,65.1697948 164.779974,58.0481068 166.542865,53.2026306 C170.755506,41.6265404 179.044327,11.7846721 156.61498,2.77228848 C128.578043,-8.49357004 107.918157,38.4469176 60.9629971,17.7932647 C14.0083428,-2.86089341 -21.7356813,77.2400326 39.7041931,69.5812497 C76.2791209,65.0222578 78.4908209,96.0747372 39.7041931,151.949798 C12.7968608,190.711587 83.602092,132.93623 141.792142,174.887747 C211.646181,225.247857 281.252565,87.0603325 218.646191,105.170489 C170.575578,119.075844 163.161127,90.9751135 163.161127,74.1801574" fill-opacity="0.2" fill="#546EC0"></path>
                    <path d="M235.111744,164 L195.974164,164 C193.530365,164 193.345366,160.346027 195.782612,160.170737 C196.857823,160.093388 198.331765,160.307855 200.347092,160.996961 C209.139324,164 213.56266,163.749872 215.244788,153.987862 C216.926916,144.225852 221.951121,161.747847 225.21708,158.993931 C228.482536,156.24102 227.477393,159.994944 232.502101,159.244059 C234.912126,158.883935 236.165783,159.963804 236.818572,161.184808 C237.500093,162.46056 236.561993,164 235.111744,164" id="cloud-2" fill="#CFD2E6"></path>
                    <path d="M2.17565332,221 L99.9210573,221 C101.654134,221 102.652119,219.043778 101.639472,217.640423 C99.0823252,214.096725 94.6591383,209.539101 90.8492015,213.545876 C85.0908178,219.602194 73.5735448,205.470785 66.7251632,211.060999 C59.8767816,216.651719 55.8302405,218.170086 51.0056351,209.723726 C46.1805241,201.277871 39.3326481,187.767429 34.0403952,199.724697 C28.7491534,211.682471 30.149568,214.632946 22.0564858,209.198099 C13.962898,203.762747 14.5857539,219.136595 8.36022822,215.720016 C5.01996121,213.886878 2.35158989,215.54094 0.595763142,217.468409 C-0.63882624,218.823337 0.339947324,221 2.17565332,221" id="cloud-1" fill="#CFD2E6"></path>
                </g>
                <g id="Group-35" transform="translate(31.320332, 43.677648)">
                    <g id="Group-3" transform="translate(183.724943, 9.000000)">
                        <mask id="mask-2" fill="white">
                            <use xlink:href="#path-1"></use>
                        </mask>
                        <g id="Clip-2"></g>
                        <path d="M0.9392,14.3029765 C0.9392,14.3029765 6.73653333,-1.32284706 13.1344,0.745917647 C19.5312,2.81691765 12.3002667,16.9395059 6.52746667,18.7310941" id="Fill-1" fill="#FFC161" mask="url(#mask-2)"></path>
                    </g>
                    <g id="Group-6" transform="translate(0.724943, 16.000000)">
                        <mask id="mask-4" fill="white">
                            <use xlink:href="#path-3"></use>
                        </mask>
                        <g id="Clip-5"></g>
                        <path d="M16.7602505,14.6644355 C16.7602505,14.6644355 10.9359648,-0.870008951 4.51060765,1.18776883 C-1.91474949,3.24665772 5.3484648,17.2855466 11.1470362,19.0677688" id="Fill-4" fill="#FFC161" mask="url(#mask-4)"></path>
                    </g>
                    <path d="M37.3150476,240 L22.7249434,246.279392 C22.7249434,246.279392 23.7371333,250.092149 26.9768031,251 L45.7249434,244.501472 L37.3150476,240 Z" id="Fill-7" fill="#FFC161"></path>
                    <g id="Group-11" transform="translate(19.724943, 244.000000)">
                        <mask id="mask-6" fill="white">
                            <use xlink:href="#path-5"></use>
                        </mask>
                        <g id="Clip-10"></g>
                        <path d="M6.2409,0.877026316 C6.2409,0.877026316 0.6559,-1.78886842 0.2609,4.80623684 C-0.1351,11.4002368 8.1369,25.0126579 9.3459,19.8610263 C10.5559,14.7105 8.4059,3.66339474 6.2409,0.877026316" id="Fill-9" fill="#455CA6" mask="url(#mask-6)"></path>
                    </g>
                    <path d="M41.2491168,211.211864 L26.0504656,209 C26.0504656,209 24.863653,212.559062 27.0222681,214.896937 L45.7249434,219 L41.2491168,211.211864 Z" id="Fill-12" fill="#FFC161"></path>
                    <path d="M28.6786114,207.543589 C28.6786114,207.543589 25.0535661,201.969835 21.3227418,207.32401 C17.5929753,212.678184 18.01186,229.125526 21.7310486,225.476968 C25.4491794,221.82952 29.1852927,211.189928 28.6786114,207.543589" id="Fill-14" fill="#455CA6"></path>
                    <path d="M96.4375908,174.411544 C96.4375908,174.411544 75.841506,201.577826 36.8211726,207.558278 L35.7249434,218.352764 C35.7249434,218.352764 68.8896761,225.320104 100.84313,210.596344 C132.795498,195.872584 121.952597,168 121.952597,168" id="Fill-18" fill="#394E8F"></path>
                    <path d="M90.0128074,142.90495 C90.0128074,142.90495 107.087638,193.590746 87.8894237,208.060258 C68.691209,222.528694 33.7249434,240.541607 33.7249434,240.541607 L37.9620787,250 C37.9620787,250 120.185406,238.588594 132.020273,208.767217 C143.856211,178.945839 133.603179,127 133.603179,127 L90.0128074,142.90495 Z" id="Fill-16" fill="#455CA6"></path>
                    <path d="M90.8882648,65.403017 C90.8882648,65.403017 90.3446292,48.7606608 86.3505926,43.2846381 C82.3565561,37.8096763 78.7249434,25.1030124 78.7249434,25.1030124 L103.441403,16 L112.365035,27.3201545 C112.365035,27.3201545 113.43861,43.8405149 110.864769,51.3607637 C110.864769,51.3607637 111.059677,65.3032987 113.663017,70.8185721 C114.798752,73.2245426 100.051054,72.2103857 90.8882648,65.403017" id="Fill-20" fill="#FFC161"></path>
                    <g id="Group-24" transform="translate(72.724943, 0.000000)">
                        <mask id="mask-8" fill="white">
                            <use xlink:href="#path-7"></use>
                        </mask>
                        <g id="Clip-23"></g>
                        <path d="M16.6829867,29.9235963 C16.5837867,28.0815593 18.4237867,26.7840778 20.11552,27.4940407 C22.1165867,28.3350407 24.52512,29.8645222 26.8504533,32.0008556 C34.2253867,38.7664481 46.1880533,34.0254852 43.9245867,26.9269296 C41.6600533,19.8283741 50.1176533,23.6058926 46.50912,15.0551889 C42.9005867,6.50555926 38.5720533,15.5643 34.57632,6.94378148 C30.57952,-1.67458889 10.8845867,-3.03866296 7.07765333,10.3045593 C7.07765333,10.3045593 -10.6514133,22.7487815 12.08352,43.7855963 C12.49632,44.1690407 13.1437867,43.7104111 12.9133867,43.1927074 C12.11552,41.4075963 11.2344533,38.9705222 11.35072,37.1188185 C11.4349867,35.7783741 13.37312,35.6956704 13.5821867,37.0221519 C14.1656533,40.7244852 15.71872,47.8402259 19.50752,53.0838556 C25.73472,61.7022259 39.5597867,57.7496333 39.8253867,47.0948185 C39.8296533,46.956263 39.83072,46.8177074 39.83072,46.6770037 C39.8264533,45.188337 38.8685867,43.8478926 37.4552533,43.4139667 C34.77472,42.5890778 30.0312533,41.9446333 25.48192,45.391337 C23.1000533,47.1979296 19.6600533,46.1517815 18.7885867,43.2807815 C17.8680533,40.2508185 17.00512,35.9265963 16.6829867,29.9235963" id="Fill-22" fill="#546EC0" mask="url(#mask-8)"></path>
                    </g>
                    <path d="M91.0246223,64.2353771 L105.404371,70.5408804 C105.404371,70.5408804 110.686994,65.9495575 113.499621,63 L122.860228,71.3612227 L136.724943,141.485898 L130.964153,141.682608 C112.262455,142.988238 104.162868,143.336262 90.9866724,148 L86.9227832,126.489522 L84.7249434,95.44189" id="Fill-25" fill="#FFFFFF"></path>
                    <path d="M103.724943,49.7208455 C103.724943,49.7208455 105.290113,49.4218864 107.724943,49 C107.724943,49 106.954483,52.9720259 103.724943,49.7208455" id="Fill-27" fill="#FEFDFC"></path>
                    <path d="M190.724943,27.1398513 L184.27043,22 C136.153308,71.3855308 112.83077,61.3853791 112.83077,61.3853791 L110.724943,79.8940247 L128.481548,121.199562 L128.479406,121.195245 C132.309934,133.907796 135.333246,143.538811 135.333246,143.538811 C146.419079,149.899404 133.405135,88.3647415 133.405135,88.3647415 C173.328053,70.8447779 190.724943,27.1398513 190.724943,27.1398513" id="Fill-31" fill="#546EC0"></path>
                    <path d="M103.724943,81.1998279 L91.2258797,61.6359505 C38.6183639,61.553822 16.6829067,28 16.6829067,28 L9.72494342,33.55232 C35.2209167,82.3734012 77.8207581,92.8739644 77.8207581,92.8739644 C81.8413227,126.379158 83.3305406,142.221316 89.5260762,147.35651 C91.0800897,148.644631 93.4386481,147.906555 93.9840108,145.963567 C94.9699832,142.459057 95.6028199,138.153794 95.9689148,133.364404 L95.9699947,133.382775 L103.724943,81.1998279 Z" id="Fill-33" fill="#546EC0"></path>
                </g>
                <g id="Group" transform="translate(34.064494, 47.779379) rotate(37.000000) translate(-34.064494, -47.779379) translate(13.564494, 21.779379)">
                    <g id="Group-8">
                        <polygon id="Fill-1" fill="#FA8866" points="0 52 41 52 41 0 0 0"></polygon>
                        <polygon id="Fill-2" fill="#D06850" points="4 9 36 9 36 5 4 5"></polygon>
                        <polygon id="Fill-3" fill="#D06850" points="4 15 36 15 36 11 4 11"></polygon>
                        <polygon id="Fill-4" fill="#D06850" points="4 21 36 21 36 17 4 17"></polygon>
                        <polygon id="Fill-5" fill="#D06850" points="4 27 36 27 36 23 4 23"></polygon>
                        <polygon id="Fill-6" fill="#D06850" points="4 33 36 33 36 29 4 29"></polygon>
                        <polygon id="Fill-7" fill="#D06850" points="4 39 20 39 20 35 4 35"></polygon>
                    </g>
                    <circle id="Oval" fill="#D06850" cx="31" cy="43" r="5"></circle>
                </g>
                <path d="M41.4887717,74.0578017 C39.8649939,70.3704132 39.7171619,67.8326917 41.0452756,66.444637 C42.3733893,65.0565824 43.5709306,67.0978016 44.6378995,72.5682945" id="Path-2" fill="#FFC161"></path>
                <path d="M245.336116,15.0314316 C237.2941,6.98943946 224.20945,6.98956446 216.167434,15.0315566 C210.674298,20.5246762 208.766295,28.6197933 211.144799,35.9641612 L187.917004,59.1920135 C187.565378,59.5436381 187.367628,60.0196377 187.367628,60.5177622 L187.367628,71.1250018 C187.367628,72.1613758 188.206255,73 189.242632,73 L199.849902,73 C200.347903,73 200.824029,72.8022502 201.17553,72.4506255 L203.82691,69.7973781 C204.231536,69.3927535 204.429286,68.8251291 204.363411,68.2556296 L204.033785,65.4065074 L207.981543,65.0347578 C208.878795,64.9505079 209.587421,64.2418836 209.671671,63.3446344 L210.043422,59.3968883 L212.892553,59.728263 C213.421679,59.7996379 213.954555,59.6220131 214.355556,59.2668884 C214.754681,58.9098888 214.983557,58.4007643 214.983557,57.8661398 L214.983557,54.3750182 L218.411314,54.3750182 C218.909315,54.3750182 219.38544,54.1772684 219.736941,53.8256437 L224.545326,49.0808984 C231.88784,51.461271 239.84298,49.6970228 245.336116,44.2001531 C253.378132,36.158286 253.378132,23.0734238 245.336116,15.0314316 Z M235.050959,33.1698519 C232.905035,35.3157669 229.415723,35.3157669 227.269799,33.1698519 C225.123875,31.0239369 225.123875,27.5346393 227.269799,25.3887243 C229.415723,23.2428094 232.905035,23.2428094 235.050959,25.3887243 C237.196883,27.5346393 237.196761,31.0239369 235.050959,33.1698519 Z" id="Shape" fill="#61CCBA" transform="translate(219.367628, 41.000000) rotate(72.000000) translate(-219.367628, -41.000000) "></path>
                <path d="M216.957168,64.6372074 C217.378299,58.8948422 218.431041,56.2614212 220.115395,56.7369444 C221.799749,57.2124676 221.985641,61.1324995 220.67307,68.4970402 L216.957168,64.6372074 Z" id="Path-3" fill="#FFC161"></path>
            </g>
        </g>
    </g>
</svg>