<?xml version="1.0" encoding="UTF-8"?>
<svg width="253px" height="293px" viewBox="0 0 253 293" version="1.1" xmlns="http://www.w3.org/2000/svg" xmlns:xlink="http://www.w3.org/1999/xlink">
    <!-- Generator: Sketch 53.2 (72643) - https://sketchapp.com -->
    <title>7</title>
    <desc>Created with Sketch.</desc>
    <defs>
        <polygon id="path-1" points="0.247137891 0.344263126 9.69546001 0.344263126 9.69546001 21 0.247137891 21"></polygon>
        <polygon id="path-3" points="0.495391984 0.37162963 47.4178019 0.37162963 47.4178019 57.7856488 0.495391984 57.7856488"></polygon>
    </defs>
    <g id="Page-1" stroke="none" stroke-width="1" fill="none" fill-rule="evenodd">
        <g id="7" transform="translate(-8.000000, -14.000000)">
            <g transform="translate(-17.344953, 14.000000)">
                <g id="background-4" transform="translate(158.344953, 131.000000) scale(-1, 1) translate(-158.344953, -131.000000) translate(41.344953, 0.000000)" fill="#CFD2E6">
                    <path d="M3.0233488,261.319483 L118.490647,261.319483 C120.537941,261.319483 121.716868,259.038266 120.520622,257.401767 C117.499847,253.26934 112.274707,247.95454 107.774003,252.626976 C100.971586,259.689454 87.3661544,243.210338 79.2761155,249.729277 C71.1860767,256.248805 66.4058707,258.019425 60.7065321,248.169838 C55.0065963,238.320839 46.9171547,222.565853 40.665381,236.50963 C34.4148017,250.453996 36.0691209,253.894645 26.5087088,247.556886 C16.9476996,241.218538 17.6834834,259.146504 10.3292284,255.162315 C6.38334869,253.02463 3.23118384,254.953488 1.15701399,257.201175 C-0.30141469,258.781203 0.854817053,261.319483 3.0233488,261.319483" id="Fill-103-Copy"></path>
                    <path d="M230.450221,23.4286917 L158.597381,23.4286917 C154.1108,23.4286917 153.77116,16.8434754 158.24571,16.5275661 C160.219694,16.3881677 162.925709,16.7746814 166.625657,18.0165944 C182.76735,23.4286917 190.888172,22.9779099 193.976397,5.38474658 C197.064623,-12.2084167 206.28858,19.369845 212.284569,14.4067191 C218.279632,9.44540364 216.434285,16.2107516 225.659168,14.857501 C230.083743,14.2084838 232.385336,16.1546301 233.583794,18.3551333 C234.835002,20.6543016 233.11274,23.4286917 230.450221,23.4286917" id="Fill-101-Copy"></path>
                </g>
                <path d="M48.722264,118.486935 C48.722264,118.486935 -10.7322838,152.197667 35.7759511,160.853049 C82.2841855,169.507855 36.524964,236.735614 98.1942696,222.042375 C171.981615,204.462197 149.754043,152.617683 229.54114,209.383805 C277.736536,243.673019 297.490345,60.4788723 231.207655,111.896198 C164.925546,163.312949 161.828467,102.090105 193.219323,50.7012313 C220.583851,5.90310777 78.8290504,35.8501693 60.2480344,57.0499533 C41.6670189,78.2503128 86.9544331,94.8235975 48.722264,118.486935" id="Fill-3" fill-opacity="0.2" fill="#546EC0" transform="translate(145.836867, 125.781830) rotate(-12.000000) translate(-145.836867, -125.781830) "></path>
                <g id="Group-35-Copy" transform="translate(67.344953, 28.000000)">
                    <g id="Group-3" transform="translate(132.724943, 72.000000)" fill="#FFC161">
                        <path d="M3.24964221,13.6050106 C3.24964221,13.6050106 9.04697555,-2.02081296 15.4448422,0.0479517435 C21.8416422,2.11895174 14.6107089,16.24154 8.83790888,18.0331282" id="Fill-1" transform="translate(10.596967, 8.946201) rotate(79.000000) translate(-10.596967, -8.946201) "></path>
                    </g>
                    <g id="Group-6" transform="translate(59.218088, 131.625976) rotate(-78.000000) translate(-59.218088, -131.625976) translate(47.218088, 119.625976)"></g>
                    <path d="M19.3150476,240 L4.72494342,246.279392 C4.72494342,246.279392 5.73713327,250.092149 8.97680309,251 L27.7249434,244.501472 L19.3150476,240 Z" id="Fill-7" fill="#FFC161"></path>
                    <g id="Group-11" transform="translate(1.724943, 244.000000)">
                        <mask id="mask-2" fill="white">
                            <use xlink:href="#path-1"></use>
                        </mask>
                        <g id="Clip-10"></g>
                        <path d="M6.2409,0.877026316 C6.2409,0.877026316 0.6559,-1.78886842 0.2609,4.80623684 C-0.1351,11.4002368 8.1369,25.0126579 9.3459,19.8610263 C10.5559,14.7105 8.4059,3.66339474 6.2409,0.877026316" id="Fill-9" fill="#455CA6" mask="url(#mask-2)"></path>
                    </g>
                    <path d="M23.2491168,211.211864 L8.05046556,209 C8.05046556,209 6.86365303,212.559062 9.0222681,214.896937 L27.7249434,219 L23.2491168,211.211864 Z" id="Fill-12" fill="#FFC161"></path>
                    <path d="M10.6786114,207.543589 C10.6786114,207.543589 7.05356607,201.969835 3.32274178,207.32401 C-0.407024716,212.678184 0.0118600069,229.125526 3.73104861,225.476968 C7.44917942,221.82952 11.1852927,211.189928 10.6786114,207.543589" id="Fill-14" fill="#455CA6"></path>
                    <path d="M78.4375908,174.411544 C78.4375908,174.411544 57.841506,201.577826 18.8211726,207.558278 L17.7249434,218.352764 C17.7249434,218.352764 50.8896761,225.320104 82.8431298,210.596344 C114.795498,195.872584 103.952597,168 103.952597,168" id="Fill-18" fill="#394E8F"></path>
                    <path d="M72.0128074,142.90495 C72.0128074,142.90495 89.0876383,193.590746 69.8894237,208.060258 C50.691209,222.528694 15.7249434,240.541607 15.7249434,240.541607 L19.9620787,250 C19.9620787,250 102.185406,238.588594 114.020273,208.767217 C125.856211,178.945839 115.603179,127 115.603179,127 L72.0128074,142.90495 Z" id="Fill-16" fill="#455CA6"></path>
                    <path d="M72.8882648,65.403017 C72.8882648,65.403017 72.3446292,48.7606608 68.3505926,43.2846381 C64.3565561,37.8096763 60.7249434,25.1030124 60.7249434,25.1030124 L85.4414025,16 L94.3650346,27.3201545 C94.3650346,27.3201545 95.4386097,43.8405149 92.8647687,51.3607637 C92.8647687,51.3607637 93.0596768,65.3032987 95.6630174,70.8185721 C96.7987524,73.2245426 82.0510545,72.2103857 72.8882648,65.403017" id="Fill-20" fill="#FFC161"></path>
                    <g id="Group-24" transform="translate(54.724943, 0.000000)">
                        <mask id="mask-4" fill="white">
                            <use xlink:href="#path-3"></use>
                        </mask>
                        <g id="Clip-23"></g>
                        <path d="M16.6829867,29.9235963 C16.5837867,28.0815593 18.4237867,26.7840778 20.11552,27.4940407 C22.1165867,28.3350407 24.52512,29.8645222 26.8504533,32.0008556 C34.2253867,38.7664481 46.1880533,34.0254852 43.9245867,26.9269296 C41.6600533,19.8283741 50.1176533,23.6058926 46.50912,15.0551889 C42.9005867,6.50555926 38.5720533,15.5643 34.57632,6.94378148 C30.57952,-1.67458889 10.8845867,-3.03866296 7.07765333,10.3045593 C7.07765333,10.3045593 -10.6514133,22.7487815 12.08352,43.7855963 C12.49632,44.1690407 13.1437867,43.7104111 12.9133867,43.1927074 C12.11552,41.4075963 11.2344533,38.9705222 11.35072,37.1188185 C11.4349867,35.7783741 13.37312,35.6956704 13.5821867,37.0221519 C14.1656533,40.7244852 15.71872,47.8402259 19.50752,53.0838556 C25.73472,61.7022259 39.5597867,57.7496333 39.8253867,47.0948185 C39.8296533,46.956263 39.83072,46.8177074 39.83072,46.6770037 C39.8264533,45.188337 38.8685867,43.8478926 37.4552533,43.4139667 C34.77472,42.5890778 30.0312533,41.9446333 25.48192,45.391337 C23.1000533,47.1979296 19.6600533,46.1517815 18.7885867,43.2807815 C17.8680533,40.2508185 17.00512,35.9265963 16.6829867,29.9235963" id="Fill-22" fill="#546EC0" mask="url(#mask-4)"></path>
                    </g>
                    <path d="M73.0246223,64.2353771 L87.4043712,70.5408804 C87.4043712,70.5408804 92.6869935,65.9495575 95.4996213,63 L104.860228,71.3612227 L118.724943,141.485898 L112.964153,141.682608 C94.2624554,142.988238 86.1628683,143.336262 72.9866724,148 L68.9227832,126.489522 L66.7249434,95.44189" id="Fill-25" fill="#546EC0"></path>
                    <path d="M85.7249434,49.7208455 C85.7249434,49.7208455 87.2901129,49.4218864 89.7249434,49 C89.7249434,49 88.9544832,52.9720259 85.7249434,49.7208455" id="Fill-27" fill="#FEFDFC"></path>
                    <path d="M85.7249434,81.1998279 L73.2258797,61.6359505 C20.6183639,61.553822 59.8207581,92.8739644 59.8207581,92.8739644 C63.8413227,126.379158 65.3305406,142.221316 71.5260762,147.35651 C73.0800897,148.644631 75.4386481,147.906555 75.9840108,145.963567 C76.9699832,142.459057 77.6028199,138.153794 77.9689148,133.364404 L77.9699947,133.382775 L85.7249434,81.1998279 Z" id="Fill-33" fill="#546EC0"></path>
                </g>
                <g id="Group-2" transform="translate(34.344953, 53.000000)">
                    <g id="Group-7-Copy-3" transform="translate(33.000000, 30.000000) rotate(-33.000000) translate(-33.000000, -30.000000) translate(6.000000, 12.000000)" fill-rule="nonzero">
                        <path d="M4.4520937,0.131183224 L48.6187604,0.131183224 C51.0578473,0.131183224 53.035427,2.09010656 53.035427,4.50618322 L53.035427,30.7561832 C53.035427,33.1722599 51.0578473,35.1311832 48.6187604,35.1311832 L4.4520937,35.1311832 C2.01300679,35.1311832 0.0354270362,33.1722599 0.0354270362,30.7561832 L0.0354270362,4.50618322 C0.0354270362,2.09010656 2.01300679,0.131183224 4.4520937,0.131183224 Z" id="Path" fill="#61CCBA"></path>
                        <path d="M6.43043971,5.8436923 L13.1804397,5.8436923 C13.8017166,5.8436923 14.3054397,6.34741541 14.3054397,6.9686923 L14.3054397,13.7186923 C14.3054397,14.3399692 13.8017166,14.8436923 13.1804397,14.8436923 L6.43043971,14.8436923 C5.80916282,14.8436923 5.30543971,14.3399692 5.30543971,13.7186923 L5.30543971,6.9686923 C5.30543971,6.34741541 5.80916282,5.8436923 6.43043971,5.8436923 Z" id="Path" fill="#FFC24F"></path>
                        <polygon id="Path" fill="#FFA230" points="5.11721496 9.30057227 9.11721496 9.30057227 9.11721496 11.3005723 5.11721496 11.3005723"></polygon>
                        <polygon id="Path" fill="#FFA230" points="10.9444849 9.50775574 14.9444849 9.50775574 14.9444849 11.5077557 10.9444849 11.5077557"></polygon>
                        <g id="Group" transform="translate(6.521113, 5.867477)" fill="#5EB3D1">
                            <polygon id="Path" points="39.689917 0 41.8949124 0 41.8949124 3.40396163 39.689917 3.40396163"></polygon>
                            <polygon id="Path" points="35.2799263 0 37.4849216 0 37.4849216 3.40396163 35.2799263 3.40396163"></polygon>
                            <polygon id="Path" points="30.8699355 0 33.0749309 0 33.0749309 3.40396163 30.8699355 3.40396163"></polygon>
                            <polygon id="Path" points="26.4599447 0 28.6649401 0 28.6649401 3.40396163 26.4599447 3.40396163"></polygon>
                            <polygon id="Path" points="0 17.0198082 2.20499539 17.0198082 2.20499539 19.2891159 0 19.2891159"></polygon>
                            <polygon id="Path" points="4.40999078 17.0198082 6.61498617 17.0198082 6.61498617 19.2891159 4.40999078 19.2891159"></polygon>
                            <polygon id="Path" points="8.81998156 17.0198082 11.024977 17.0198082 11.024977 19.2891159 8.81998156 19.2891159"></polygon>
                            <polygon id="Path" points="13.2299723 17.0198082 15.4349677 17.0198082 15.4349677 19.2891159 13.2299723 19.2891159"></polygon>
                            <polygon id="Path" points="17.6399631 17.0198082 19.8449585 17.0198082 19.8449585 19.2891159 17.6399631 19.2891159"></polygon>
                            <polygon id="Path" points="22.0499539 17.0198082 24.2549493 17.0198082 24.2549493 19.2891159 22.0499539 19.2891159"></polygon>
                            <polygon id="Path" points="0 22.6930776 6.61498617 22.6930776 6.61498617 24.9623853 0 24.9623853"></polygon>
                            <polygon id="Path" points="17.6399631 22.6930776 24.2549493 22.6930776 24.2549493 24.9623853 17.6399631 24.9623853"></polygon>
                        </g>
                    </g>
                    <g id="visa-2" transform="translate(49.855227, 29.336656) rotate(-31.000000) translate(-49.855227, -29.336656) translate(40.355227, 25.836656)" fill="#FFFFFF">
                        <g id="visa" transform="translate(0.945174, 0.725746)">
                            <polygon id="Path" points="6.51851852 5.47252747 7.42151675 0.197802198 8.8324515 0.197802198 7.95767196 5.47252747"></polygon>
                            <polygon id="Path" points="6.51851852 5.47252747 7.67548501 0.197802198 8.8324515 0.197802198 7.95767196 5.47252747"></polygon>
                            <path d="M13.0652557,0.256410256 C12.7830688,0.139194139 12.3315697,0.021978022 11.7671958,0.021978022 C10.356261,0.021978022 9.34038801,0.754578755 9.34038801,1.80952381 C9.34038801,2.6007326 10.0458554,3.01098901 10.6102293,3.27472527 C11.1746032,3.53846154 11.3439153,3.71428571 11.3439153,3.94871795 C11.3439153,4.3003663 10.8924162,4.47619048 10.4973545,4.47619048 C9.9329806,4.47619048 9.62257496,4.38827839 9.14285714,4.18315018 L8.94532628,4.0952381 L8.74779541,5.2967033 C9.08641975,5.44322344 9.70723104,5.58974359 10.356261,5.58974359 C11.8518519,5.58974359 12.8395062,4.85714286 12.8395062,3.74358974 C12.8395062,3.12820513 12.4726631,2.65934066 11.6261023,2.27838828 C11.1181658,2.01465201 10.8077601,1.86813187 10.8077601,1.6043956 C10.8077601,1.36996337 11.0617284,1.13553114 11.6261023,1.13553114 C12.1058201,1.13553114 12.4444444,1.22344322 12.6984127,1.34065934 L12.8395062,1.3992674 L13.0652557,0.256410256 L13.0652557,0.256410256 Z" id="Path"></path>
                            <path d="M13.0652557,0.256410256 C12.7830688,0.139194139 12.3315697,0.021978022 11.7671958,0.021978022 C10.356261,0.021978022 9.59435626,0.754578755 9.59435626,1.80952381 C9.59435626,2.6007326 10.0458554,3.01098901 10.6102293,3.27472527 C11.1746032,3.53846154 11.3439153,3.71428571 11.3439153,3.94871795 C11.3439153,4.3003663 10.8924162,4.47619048 10.4973545,4.47619048 C9.9329806,4.47619048 9.62257496,4.38827839 9.14285714,4.18315018 L8.94532628,4.0952381 L8.74779541,5.2967033 C9.08641975,5.44322344 9.70723104,5.58974359 10.356261,5.58974359 C11.8518519,5.58974359 12.8395062,4.85714286 12.8395062,3.74358974 C12.8395062,3.12820513 12.4726631,2.65934066 11.6261023,2.27838828 C11.1181658,2.01465201 10.8077601,1.86813187 10.8077601,1.6043956 C10.8077601,1.36996337 11.0617284,1.13553114 11.6261023,1.13553114 C12.1058201,1.13553114 12.4444444,1.22344322 12.6984127,1.34065934 L12.8395062,1.3992674 L13.0652557,0.256410256 L13.0652557,0.256410256 Z" id="Path"></path>
                            <path d="M15.4920635,0.197802198 C15.1534392,0.197802198 14.8994709,0.227106227 14.7583774,0.578754579 L12.6419753,5.47252747 L14.1657848,5.47252747 L14.4479718,4.59340659 L16.2539683,4.59340659 L16.4232804,5.47252747 L17.7777778,5.47252747 L16.5925926,0.197802198 L15.4920635,0.197802198 Z M14.8430335,3.71428571 C14.9276896,3.45054945 15.4074074,2.16117216 15.4074074,2.16117216 C15.4074074,2.16117216 15.5202822,1.83882784 15.6049383,1.63369963 L15.6895944,2.13186813 C15.6895944,2.13186813 15.9717813,3.45054945 16.0282187,3.74358974 L14.8430335,3.74358974 L14.8430335,3.71428571 Z" id="Shape" fill-rule="nonzero"></path>
                            <path d="M15.8306878,0.197802198 C15.4920635,0.197802198 15.2380952,0.227106227 15.0970018,0.578754579 L12.6419753,5.47252747 L14.1657848,5.47252747 L14.4479718,4.59340659 L16.2539683,4.59340659 L16.4232804,5.47252747 L17.7777778,5.47252747 L16.5925926,0.197802198 L15.8306878,0.197802198 Z M14.8430335,3.71428571 C14.9559083,3.42124542 15.4074074,2.16117216 15.4074074,2.16117216 C15.4074074,2.16117216 15.5202822,1.83882784 15.6049383,1.63369963 L15.6895944,2.13186813 C15.6895944,2.13186813 15.9717813,3.45054945 16.0282187,3.74358974 L14.8430335,3.74358974 L14.8430335,3.71428571 Z" id="Shape" fill-rule="nonzero"></path>
                            <path d="M3.92239859,3.89010989 L3.78130511,3.12820513 C3.52733686,2.24908425 2.70899471,1.28205128 1.80599647,0.813186813 L3.07583774,5.5018315 L4.59964727,5.5018315 L6.88536155,0.227106227 L5.36155203,0.227106227 L3.92239859,3.89010989 Z" id="Path"></path>
                            <path d="M3.92239859,3.89010989 L3.78130511,3.12820513 C3.52733686,2.24908425 2.70899471,1.28205128 1.80599647,0.813186813 L3.07583774,5.5018315 L4.59964727,5.5018315 L6.88536155,0.227106227 L5.64373898,0.227106227 L3.92239859,3.89010989 Z" id="Path"></path>
                            <path d="M0,0.197802198 L0.253968254,0.256410256 C2.05996473,0.695970696 3.3015873,1.80952381 3.78130511,3.12820513 L3.27336861,0.637362637 C3.18871252,0.285714286 2.93474427,0.197802198 2.62433862,0.197802198 L0,0.197802198 L0,0.197802198 Z" id="Path"></path>
                            <path d="M0,0.197802198 L0,0.197802198 C1.80599647,0.637362637 3.3015873,1.78021978 3.78130511,3.0989011 L3.3015873,1.01831502 C3.21693122,0.666666667 2.93474427,0.461538462 2.62433862,0.461538462 L0,0.197802198 Z" id="Path"></path>
                            <path d="M0,0.197802198 L0,0.197802198 C1.80599647,0.637362637 3.3015873,1.78021978 3.78130511,3.0989011 L3.44268078,1.95604396 C3.35802469,1.6043956 3.24514991,1.25274725 2.85008818,1.10622711 L0,0.197802198 Z" id="Path"></path>
                            <g id="Group" transform="translate(1.834215, 0.769231)">
                                <path d="M3.49911817,2.94505495 L2.53968254,1.94871795 L2.08818342,3.06227106 L1.97530864,2.32967033 C1.72134039,1.45054945 0.902998236,0.483516484 0,0.0146520147 L1.26984127,4.7032967 L2.79365079,4.7032967 L3.49911817,2.94505495 Z" id="Path"></path>
                                <polygon id="Path" points="6.12345679 4.7032967 4.91005291 3.41391941 4.68430335 4.7032967"></polygon>
                                <path d="M9.3686067,2.88644689 L9.3686067,2.88644689 C9.48148148,3.003663 9.53791887,3.09157509 9.50970018,3.20879121 C9.50970018,3.56043956 9.05820106,3.73626374 8.66313933,3.73626374 C8.09876543,3.73626374 7.78835979,3.64835165 7.30864198,3.44322344 L7.11111111,3.35531136 L6.91358025,4.55677656 C7.25220459,4.7032967 7.87301587,4.84981685 8.52204586,4.84981685 C9.42504409,4.84981685 10.1587302,4.58608059 10.5820106,4.11721612 L9.3686067,2.88644689 Z" id="Path"></path>
                                <path d="M11.005291,4.7032967 L12.3315697,4.7032967 L12.6137566,3.82417582 L14.4197531,3.82417582 L14.5890653,4.7032967 L15.9435626,4.7032967 L15.4638448,2.56410256 L13.7707231,0.864468864 L13.8553792,1.33333333 C13.8553792,1.33333333 14.1375661,2.65201465 14.1940035,2.94505495 L13.0088183,2.94505495 C13.1216931,2.65201465 13.5731922,1.39194139 13.5731922,1.39194139 C13.5731922,1.39194139 13.686067,1.06959707 13.7707231,0.864468864" id="Path"></path>
                            </g>
                        </g>
                    </g>
                </g>
                <g id="Group-7-Copy" transform="translate(240.356824, 36.788911) rotate(26.000000) translate(-240.356824, -36.788911) translate(219.356824, 22.788911)">
                    <path d="M3.42889908,0 L37.7178899,0 C39.611486,0 41.146789,1.53530296 41.146789,3.42889908 L41.146789,24.0022936 C41.146789,25.8958897 39.611486,27.4311927 37.7178899,27.4311927 L3.42889908,27.4311927 C1.53530296,27.4311927 0,25.8958897 0,24.0022936 L0,3.42889908 C0,1.53530296 1.53530296,0 3.42889908,0 Z" id="Path" fill="#546EC0" fill-rule="nonzero"></path>
                    <path d="M34.0981882,16.4589338 C33.1209669,16.4616125 32.1929997,16.9218968 31.5551776,17.7205862 C30.6280383,16.5669733 29.133854,16.1557979 27.8077136,16.6897456 C26.4815733,17.2232469 25.6024465,18.5893674 25.6024465,20.116208 C25.6024465,21.6430485 26.4815733,23.009169 27.8077136,23.5426703 C29.133854,24.0766181 30.6280383,23.6654426 31.5551776,22.5118297 C32.5820671,23.7797324 34.279891,24.1257269 35.6652192,23.3493597 C37.0501336,22.5729926 37.7632859,20.8751638 37.3916023,19.2402837 C37.0195048,17.6049571 35.6590107,16.4558086 34.0981882,16.4589338 L34.0981882,16.4589338 Z" id="Path" fill="#FA8866"></path>
                    <path d="M4.57186544,4.57186544 L10.058104,4.57186544 C10.563063,4.57186544 10.9724771,4.98127954 10.9724771,5.48623853 L10.9724771,10.9724771 C10.9724771,11.4774361 10.563063,11.8868502 10.058104,11.8868502 L4.57186544,11.8868502 C4.06690645,11.8868502 3.65749235,11.4774361 3.65749235,10.9724771 L3.65749235,5.48623853 C3.65749235,4.98127954 4.06690645,4.57186544 4.57186544,4.57186544 Z" id="Path" fill="#FFC24F" fill-rule="nonzero"></path>
                    <polygon id="Path" fill="#FFA230" fill-rule="nonzero" points="4.57186544 7.31498471 7.31498471 7.31498471 7.31498471 9.14373089 4.57186544 9.14373089"></polygon>
                    <polygon id="Path" fill="#FFA230" fill-rule="nonzero" points="8.2293578 7.31498471 10.9724771 7.31498471 10.9724771 9.14373089 8.2293578 9.14373089"></polygon>
                    <g id="Group" transform="translate(4.571865, 4.571865)" fill="#5EB3D1" fill-rule="nonzero">
                        <polygon id="Path" points="31.1849348 0 32.9174312 0 32.9174312 2.61843203 31.1849348 2.61843203"></polygon>
                        <polygon id="Path" points="27.7199421 0 29.4524384 0 29.4524384 2.61843203 27.7199421 2.61843203"></polygon>
                        <polygon id="Path" points="24.2549493 0 25.9874457 0 25.9874457 2.61843203 24.2549493 2.61843203"></polygon>
                        <polygon id="Path" points="20.7899565 0 22.5224529 0 22.5224529 2.61843203 20.7899565 2.61843203"></polygon>
                        <polygon id="Path" points="0 13.0921601 1.73249638 13.0921601 1.73249638 14.8377815 0 14.8377815"></polygon>
                        <polygon id="Path" points="3.46499276 13.0921601 5.19748914 13.0921601 5.19748914 14.8377815 3.46499276 14.8377815"></polygon>
                        <polygon id="Path" points="6.92998551 13.0921601 8.66248189 13.0921601 8.66248189 14.8377815 6.92998551 14.8377815"></polygon>
                        <polygon id="Path" points="10.3949783 13.0921601 12.1274746 13.0921601 12.1274746 14.8377815 10.3949783 14.8377815"></polygon>
                        <polygon id="Path" points="13.859971 13.0921601 15.5924674 13.0921601 15.5924674 14.8377815 13.859971 14.8377815"></polygon>
                        <polygon id="Path" points="17.3249638 13.0921601 19.0574602 13.0921601 19.0574602 14.8377815 17.3249638 14.8377815"></polygon>
                        <polygon id="Path" points="0 17.4562135 5.19748914 17.4562135 5.19748914 19.2018349 0 19.2018349"></polygon>
                        <polygon id="Path" points="13.859971 17.4562135 19.0574602 17.4562135 19.0574602 19.2018349 13.859971 19.2018349"></polygon>
                    </g>
                </g>
                <rect id="Rectangle" fill="#FFFFFF" x="134.344953" y="94" width="77" height="155" rx="15"></rect>
                <path d="M149.344953,98 L145.344953,98 C140.926675,98 137.344953,101.581722 137.344953,106 L137.344953,239 C137.344953,243.418278 140.926675,247 145.344953,247 L200.344953,247 C204.763231,247 208.344953,243.418278 208.344953,239 L208.344953,106 C208.344953,101.581722 204.763231,98 200.344953,98 L196.344953,98 C194.135814,98 192.344953,99.790861 192.344953,102 L192.344953,102 C192.344953,104.761424 190.106376,107 187.344953,107 L158.344953,107 C155.583529,107 153.344953,104.761424 153.344953,102 L153.344953,102 C153.344953,99.790861 151.554092,98 149.344953,98 Z M146.344953,93 L199.344953,93 C207.076939,93 213.344953,99.2680135 213.344953,107 L213.344953,238 C213.344953,245.731986 207.076939,252 199.344953,252 L146.344953,252 C138.612966,252 132.344953,245.731986 132.344953,238 L132.344953,107 C132.344953,99.2680135 138.612966,93 146.344953,93 Z" id="Shape" fill="#576574" fill-rule="nonzero"></path>
                <g id="Group-4" transform="translate(88.344953, 163.000000)" fill-rule="nonzero">
                    <g id="Group-7-Copy-4" transform="translate(33.000000, 29.000000) rotate(26.000000) translate(-33.000000, -29.000000) translate(6.000000, 11.000000)">
                        <path d="M4.4520937,0.131183224 L48.6187604,0.131183224 C51.0578473,0.131183224 53.035427,2.09010656 53.035427,4.50618322 L53.035427,30.7561832 C53.035427,33.1722599 51.0578473,35.1311832 48.6187604,35.1311832 L4.4520937,35.1311832 C2.01300679,35.1311832 0.0354270362,33.1722599 0.0354270362,30.7561832 L0.0354270362,4.50618322 C0.0354270362,2.09010656 2.01300679,0.131183224 4.4520937,0.131183224 Z" id="Path" fill="#FA8866"></path>
                        <path d="M6.43043971,5.8436923 L13.1804397,5.8436923 C13.8017166,5.8436923 14.3054397,6.34741541 14.3054397,6.9686923 L14.3054397,13.7186923 C14.3054397,14.3399692 13.8017166,14.8436923 13.1804397,14.8436923 L6.43043971,14.8436923 C5.80916282,14.8436923 5.30543971,14.3399692 5.30543971,13.7186923 L5.30543971,6.9686923 C5.30543971,6.34741541 5.80916282,5.8436923 6.43043971,5.8436923 Z" id="Path" fill="#FFC24F"></path>
                        <polygon id="Path" fill="#FFA230" points="5.11721496 9.30057227 9.11721496 9.30057227 9.11721496 11.3005723 5.11721496 11.3005723"></polygon>
                        <polygon id="Path" fill="#FFA230" points="10.9444849 9.50775574 14.9444849 9.50775574 14.9444849 11.5077557 10.9444849 11.5077557"></polygon>
                        <g id="Group" transform="translate(6.521113, 5.867477)" fill="#5EB3D1">
                            <polygon id="Path" points="39.689917 0 41.8949124 0 41.8949124 3.40396163 39.689917 3.40396163"></polygon>
                            <polygon id="Path" points="35.2799263 0 37.4849216 0 37.4849216 3.40396163 35.2799263 3.40396163"></polygon>
                            <polygon id="Path" points="30.8699355 0 33.0749309 0 33.0749309 3.40396163 30.8699355 3.40396163"></polygon>
                            <polygon id="Path" points="26.4599447 0 28.6649401 0 28.6649401 3.40396163 26.4599447 3.40396163"></polygon>
                            <polygon id="Path" points="0 17.0198082 2.20499539 17.0198082 2.20499539 19.2891159 0 19.2891159"></polygon>
                            <polygon id="Path" points="4.40999078 17.0198082 6.61498617 17.0198082 6.61498617 19.2891159 4.40999078 19.2891159"></polygon>
                            <polygon id="Path" points="8.81998156 17.0198082 11.024977 17.0198082 11.024977 19.2891159 8.81998156 19.2891159"></polygon>
                            <polygon id="Path" points="13.2299723 17.0198082 15.4349677 17.0198082 15.4349677 19.2891159 13.2299723 19.2891159"></polygon>
                            <polygon id="Path" points="17.6399631 17.0198082 19.8449585 17.0198082 19.8449585 19.2891159 17.6399631 19.2891159"></polygon>
                            <polygon id="Path" points="22.0499539 17.0198082 24.2549493 17.0198082 24.2549493 19.2891159 22.0499539 19.2891159"></polygon>
                            <polygon id="Path" points="0 22.6930776 6.61498617 22.6930776 6.61498617 24.9623853 0 24.9623853"></polygon>
                            <polygon id="Path" points="17.6399631 22.6930776 24.2549493 22.6930776 24.2549493 24.9623853 17.6399631 24.9623853"></polygon>
                        </g>
                    </g>
                    <path d="M35.7608435,41.3170075 L33.9370338,45.4766579 L36.1203895,45.4766579 L36.3910618,44.8134363 L37.0097595,44.8134363 L37.2804318,45.4766579 L39.6836929,45.4766579 L39.6836929,44.9704671 L39.897838,45.4766579 L41.1409936,45.4766579 L41.3551387,44.9597678 L41.3551387,45.4766579 L46.3532712,45.4766579 L46.9610179,44.8306595 L47.530088,45.4766579 L50.0972338,45.4820075 L48.2676637,43.4084453 L50.0972338,41.3170075 L47.569904,41.3170075 L46.9782989,41.9510671 L46.4271427,41.3170075 L40.9898324,41.3170075 L40.522929,42.3906488 L40.0450746,41.3170075 L37.8662765,41.3170075 L37.8662765,41.8059752 L37.6238995,41.3170075 C37.6238995,41.3170075 35.7608435,41.3170075 35.7608435,41.3170075 Z M36.2138162,41.8168075 L37.2765862,41.8168075 L38.4846155,44.6506971 L38.4846155,41.8168075 L39.6488394,41.8168075 L40.5819,43.8486925 L41.4418253,41.8168075 L42.6002338,41.8168075 L42.6002338,44.8156075 L41.8953657,44.8156075 L41.8896134,42.4657653 L40.8619889,44.8156075 L40.2314571,44.8156075 L39.1980804,42.4657653 L39.1980804,44.8156075 L37.7480153,44.8156075 L37.4731098,44.1433158 L35.9878993,44.1433158 L35.7135627,44.8150176 L34.9366338,44.8150176 C34.9366338,44.8150176 36.2138162,41.8168075 36.2138162,41.8168075 Z M43.2666338,41.8168075 L46.1190504,41.8168075 L46.9914715,42.7992465 L47.8920128,41.8168075 L48.7644338,41.8168075 L47.4388798,43.3248973 L48.7644338,44.8156075 L47.8524431,44.8156075 L46.980022,43.821757 L46.0748884,44.8156075 L43.2666338,44.8156075 L43.2666338,41.8168075 L43.2666338,41.8168075 Z M36.7695245,42.4832075 L36.2694338,43.6494075 L37.2690338,43.6494075 L36.7695245,42.4832075 Z M43.9330338,42.4837051 L43.9330338,43.0031523 L45.454191,43.0031523 L45.454191,43.5821194 L43.9330338,43.5821194 L43.9330338,44.1492075 L45.6392315,44.1492075 L46.4320338,43.3139374 L45.6728696,42.4832075 L43.9330338,42.4832075 L43.9330338,42.4837051 Z" id="Shape" fill="#FFFFFF" transform="translate(42.017134, 43.399508) rotate(26.000000) translate(-42.017134, -43.399508) "></path>
                </g>
                <g id="Group-7-Copy-2" transform="translate(221.003536, 210.831353) rotate(-46.000000) translate(-221.003536, -210.831353) translate(200.003536, 196.831353)">
                    <path d="M3.42889908,0 L37.7178899,0 C39.611486,0 41.146789,1.53530296 41.146789,3.42889908 L41.146789,24.0022936 C41.146789,25.8958897 39.611486,27.4311927 37.7178899,27.4311927 L3.42889908,27.4311927 C1.53530296,27.4311927 0,25.8958897 0,24.0022936 L0,3.42889908 C0,1.53530296 1.53530296,0 3.42889908,0 Z" id="Path" fill="#546EC0" fill-rule="nonzero"></path>
                    <path d="M34.0981882,16.4589338 C33.1209669,16.4616125 32.1929997,16.9218968 31.5551776,17.7205862 C30.6280383,16.5669733 29.133854,16.1557979 27.8077136,16.6897456 C26.4815733,17.2232469 25.6024465,18.5893674 25.6024465,20.116208 C25.6024465,21.6430485 26.4815733,23.009169 27.8077136,23.5426703 C29.133854,24.0766181 30.6280383,23.6654426 31.5551776,22.5118297 C32.5820671,23.7797324 34.279891,24.1257269 35.6652192,23.3493597 C37.0501336,22.5729926 37.7632859,20.8751638 37.3916023,19.2402837 C37.0195048,17.6049571 35.6590107,16.4558086 34.0981882,16.4589338 L34.0981882,16.4589338 Z" id="Path" fill="#FA8866"></path>
                    <path d="M4.57186544,4.57186544 L10.058104,4.57186544 C10.563063,4.57186544 10.9724771,4.98127954 10.9724771,5.48623853 L10.9724771,10.9724771 C10.9724771,11.4774361 10.563063,11.8868502 10.058104,11.8868502 L4.57186544,11.8868502 C4.06690645,11.8868502 3.65749235,11.4774361 3.65749235,10.9724771 L3.65749235,5.48623853 C3.65749235,4.98127954 4.06690645,4.57186544 4.57186544,4.57186544 Z" id="Path" fill="#FFC24F" fill-rule="nonzero"></path>
                    <polygon id="Path" fill="#FFA230" fill-rule="nonzero" points="4.57186544 7.31498471 7.31498471 7.31498471 7.31498471 9.14373089 4.57186544 9.14373089"></polygon>
                    <polygon id="Path" fill="#FFA230" fill-rule="nonzero" points="8.2293578 7.31498471 10.9724771 7.31498471 10.9724771 9.14373089 8.2293578 9.14373089"></polygon>
                    <g id="Group" transform="translate(4.571865, 4.571865)" fill="#5EB3D1" fill-rule="nonzero">
                        <polygon id="Path" points="31.1849348 0 32.9174312 0 32.9174312 2.61843203 31.1849348 2.61843203"></polygon>
                        <polygon id="Path" points="27.7199421 0 29.4524384 0 29.4524384 2.61843203 27.7199421 2.61843203"></polygon>
                        <polygon id="Path" points="24.2549493 0 25.9874457 0 25.9874457 2.61843203 24.2549493 2.61843203"></polygon>
                        <polygon id="Path" points="20.7899565 0 22.5224529 0 22.5224529 2.61843203 20.7899565 2.61843203"></polygon>
                        <polygon id="Path" points="0 13.0921601 1.73249638 13.0921601 1.73249638 14.8377815 0 14.8377815"></polygon>
                        <polygon id="Path" points="3.46499276 13.0921601 5.19748914 13.0921601 5.19748914 14.8377815 3.46499276 14.8377815"></polygon>
                        <polygon id="Path" points="6.92998551 13.0921601 8.66248189 13.0921601 8.66248189 14.8377815 6.92998551 14.8377815"></polygon>
                        <polygon id="Path" points="10.3949783 13.0921601 12.1274746 13.0921601 12.1274746 14.8377815 10.3949783 14.8377815"></polygon>
                        <polygon id="Path" points="13.859971 13.0921601 15.5924674 13.0921601 15.5924674 14.8377815 13.859971 14.8377815"></polygon>
                        <polygon id="Path" points="17.3249638 13.0921601 19.0574602 13.0921601 19.0574602 14.8377815 17.3249638 14.8377815"></polygon>
                        <polygon id="Path" points="0 17.4562135 5.19748914 17.4562135 5.19748914 19.2018349 0 19.2018349"></polygon>
                        <polygon id="Path" points="13.859971 17.4562135 19.0574602 17.4562135 19.0574602 19.2018349 13.859971 19.2018349"></polygon>
                    </g>
                </g>
                <path d="M133.834778,164.226508 C133.834778,164.226508 128.010492,148.692064 121.585135,150.749842 C115.159778,152.808731 122.422992,166.847619 128.221564,168.629842" id="Fill-4" fill="#FFC161" transform="translate(126.454653, 159.595957) rotate(-213.000000) translate(-126.454653, -159.595957) "></path>
                <path d="M114.40344,96.9551768 C101.317911,113.62976 96.5004581,125.113356 99.9510817,131.405964 C103.401705,137.698572 109.628924,147.396584 118.632737,160.5 L123.377398,152.961414 L114.40344,131 L124.115495,116.993997 L114.40344,96.9551768 Z" id="Path-4" fill="#546EC0"></path>
                <path d="M153.068853,175.100546 L149.962727,175.100546 L149.962727,177.038986 L153.608111,177.038986 L153.608111,178.236842 L148.344953,178.236842 L148.344953,171 L153.597325,171 L153.597325,172.207797 L149.962727,172.207797 L149.962727,173.932512 L153.068853,173.932512 L153.068853,175.100546 Z M157.555479,175.605263 L154.9239,175.605263 L154.9239,174.289474 L157.555479,174.289474 L157.555479,175.605263 Z M164.968243,176.149291 L165.940584,171 L167.4239,171 L165.821522,178.236842 L164.323323,178.236842 L163.147584,173.395713 L161.971845,178.236842 L160.473647,178.236842 L158.871268,171 L160.354584,171 L161.331886,176.139351 L162.522508,171 L163.782582,171 L164.968243,176.149291 Z M172.434021,176.745735 L169.645319,176.745735 L169.115147,178.236842 L167.4239,178.236842 L170.29743,171 L171.771307,171 L174.660742,178.236842 L172.969495,178.236842 L172.434021,176.745735 Z M170.055479,174.947368 L172.029163,174.947368 L171.036899,172.315789 L170.055479,174.947368 Z M176.793107,177.038986 L179.9239,177.038986 L179.9239,178.236842 L175.318637,178.236842 L175.318637,171 L176.793107,171 L176.793107,177.038986 Z M182.71416,177.038986 L185.844953,177.038986 L185.844953,178.236842 L181.23969,178.236842 L181.23969,171 L182.71416,171 L182.71416,177.038986 Z M191.226747,175.100546 L188.120621,175.100546 L188.120621,177.038986 L191.766005,177.038986 L191.766005,178.236842 L186.502847,178.236842 L186.502847,171 L191.75522,171 L191.75522,172.207797 L188.120621,172.207797 L188.120621,173.932512 L191.226747,173.932512 L191.226747,175.100546 Z M198.344953,172.207797 L196.118317,172.207797 L196.118317,178.236842 L194.620581,178.236842 L194.620581,172.207797 L192.4239,172.207797 L192.4239,171 L198.344953,171 L198.344953,172.207797 Z" id="E-WALLET" fill="#455CA6"></path>
                <g id="Group-Copy" transform="translate(157.161086, 126.000000)">
                    <g id="o-lines-2" transform="translate(6.134597, 0.000000)" fill="#E6E7E8">
                        <path d="M5.95351659,11.7892813 L0.00444865719,16.1197607 C0.0562654028,17.1497972 0.286028436,18.1333416 0.661383886,19.0437915 L6.05234755,15.1195587 C6.11680253,15.072818 6.15446445,14.9987289 6.15446445,14.9201647 L6.15446445,11.8889783 C6.15446445,11.7872924 6.03667615,11.7288664 5.95351659,11.7892813" id="Fill-3"></path>
                        <path d="M24.1034566,1.63246989 C23.5653207,1.07705073 22.9963476,0.550471603 22.3978009,0.057704918 C22.3078167,-0.0163841193 22.1771374,-0.0193675705 22.083109,0.0492518064 L17.1314502,3.65326082 C17.9362528,4.1721327 18.6856998,4.76608811 19.3694281,5.4264253 L24.0693333,2.00540129 C24.1919242,1.916395 24.2083539,1.74086862 24.1034566,1.63246989" id="Fill-5"></path>
                    </g>
                    <g id="o-lines-1" transform="translate(0.068246, 12.182426)" fill="#E6E7E8">
                        <path d="M18.3989637,7.36047238 L24.3462622,3.03148473 C24.2944455,2.0011996 24.0646825,1.01765519 23.6898325,0.107453966 L18.2970995,4.03268122 C18.2336556,4.07867609 18.1962464,4.15152203 18.1962464,4.22884314 L18.1962464,7.26002952 C18.1962464,7.36270997 18.3150458,7.42138451 18.3989637,7.36047238" id="Fill-8"></path>
                        <path d="M0.246799368,17.51798 C0.785440758,18.0736477 1.3544139,18.6004755 1.95346603,19.0937394 C2.04294471,19.1675798 2.17337125,19.1703147 2.26739968,19.1019439 L7.21931122,15.4976863 C6.41450869,14.9788144 5.66531438,14.3851076 4.98133333,13.7245218 L0.280922591,17.146043 C0.158837283,17.2348007 0.142154818,17.4098299 0.246799368,17.51798" id="Fill-10"></path>
                    </g>
                    <g id="o-2" transform="translate(0.573776, 1.243105)">
                        <path d="M23.1842022,11.0467998 L26.328594,8.75774687 L27.6384202,7.80453422 C26.9268878,6.46173258 26.0068246,5.2432414 24.9184202,4.19182348 L23.6070774,5.14652785 L20.4642022,7.43384042 C21.6562401,8.38531272 22.5987994,9.62568254 23.1842022,11.0467998" id="Fill-12" fill="#191919"></path>
                        <path d="M28.7075134,10.4284049 L27.3173081,11.4402921 L23.8407836,13.970756 C23.8483665,14.120923 23.8526635,14.2715873 23.8526635,14.4234947 C23.8526635,18.3643851 21.2762338,21.71132 17.6907678,22.9295626 L17.6907678,26.8413643 L17.6907678,28.4641131 C24.3109258,27.1081346 29.2850806,21.3378914 29.2850806,14.4234947 C29.2850806,13.0364385 29.0810995,11.6971176 28.7075134,10.4284049" id="Fill-14" fill="#191919"></path>
                        <path d="M0.120922591,14.4235941 C0.120922591,15.8106503 0.325156398,17.1502199 0.698489731,18.4186839 L2.0886951,17.4067967 L5.56521959,14.8765815 C5.55763665,14.726663 5.55359242,14.5755015 5.55359242,14.4235941 C5.55359242,10.4827038 8.13002212,7.1360174 11.7152354,5.91752622 L11.7152354,2.00597312 L11.7152354,0.382975682 C5.09507741,1.73895424 0.120922591,7.50944604 0.120922591,14.4235941" id="Fill-16" fill="#191919"></path>
                        <path d="M6.22207899,17.8006122 L3.07743444,20.0894165 L1.76760821,21.0426292 C2.4791406,22.3854308 3.39920379,23.603922 4.48760821,24.6553399 L5.79895103,23.7008842 L8.94182622,21.413323 C7.75004107,20.4618507 6.80722907,19.2214808 6.22207899,17.8006122" id="Fill-18" fill="#191919"></path>
                        <path d="M14.7030142,23.4232243 C13.656316,23.4232243 12.6520821,23.2479465 11.7153365,22.9297118 C11.6736303,22.9155404 11.6314186,22.9026121 11.5899652,22.8879434 L8.11546288,25.4169155 L6.7260158,26.4280569 C8.22111848,27.3912144 9.90705845,28.090585 11.7153365,28.4622733 C12.6798863,28.6601756 13.6785592,28.7665853 14.7030142,28.7665853 C15.7272164,28.7665853 16.7261422,28.6616673 17.6906919,28.4640137 L17.6906919,26.8412649 L17.6906919,22.9297118 C16.7539463,23.2479465 15.7497125,23.4232243 14.7030142,23.4232243" id="Fill-20" fill="#FA8866" fill-rule="nonzero"></path>
                        <path d="M17.6907678,0.385238132 C16.7264708,0.18708725 15.727545,0.0804288711 14.70309,0.0804288711 C13.6788878,0.0804288711 12.6799621,0.185346904 11.7151596,0.383000544 L11.7151596,2.00599798 L11.7151596,5.91755108 C12.6519052,5.59931629 13.6563918,5.42428716 14.70309,5.42428716 C15.7495355,5.42428716 16.7542749,5.59931629 17.6907678,5.91755108 C17.7324739,5.9319711 17.7746856,5.94440214 17.816139,5.9593194 L21.2906414,3.43034729 L22.6798357,2.41920597 C21.184733,1.45604848 19.4990458,0.756677803 17.6907678,0.385238132" id="Fill-22" fill="#546EC1"></path>
                    </g>
                </g>
            </g>
        </g>
    </g>
</svg>